%YAML 1.1
%TAG !u! tag:unity3d.com,2011:
--- !u!74 &7400000
AnimationClip:
  m_ObjectHideFlags: 0
  m_PrefabParentObject: {fileID: 0}
  m_PrefabInternal: {fileID: 0}
  m_Name: Idle_new
  serializedVersion: 6
  m_Legacy: 0
  m_Compressed: 0
  m_UseHighQualityCurve: 1
  m_RotationCurves:
  - curve:
      serializedVersion: 2
      m_Curve:
      - serializedVersion: 2
        time: 0
        value: {x: 0.0007812763, y: 0.0036492196, z: -0.8181245, w: 0.575029}
        inSlope: {x: 0.0001910585, y: 0.00001055561, z: -0.0061569214, w: -0.008760452}
        outSlope: {x: 0.0001910585, y: 0.00001055561, z: -0.0061569214, w: -0.008760452}
        tangentMode: 0
      - serializedVersion: 2
        time: 1.0000001
        value: {x: 0.0037237396, y: 0.00348891, z: -0.8933215, w: 0.44938913}
        inSlope: {x: 0.0039889626, y: -0.0006814428, z: -0.077666, w: -0.15434639}
        outSlope: {x: 0.0039889626, y: -0.0006814428, z: -0.077666, w: -0.15434639}
        tangentMode: 0
      - serializedVersion: 2
        time: 1.7083334
        value: {x: 0.0030024212, y: 0.0038473338, z: -0.8958207, w: 0.4443889}
        inSlope: {x: -0.0096322205, y: 0.002416862, z: 0.104361475, w: 0.21014452}
        outSlope: {x: -0.0096322205, y: 0.002416862, z: 0.104361475, w: 0.21014452}
        tangentMode: 0
      - serializedVersion: 2
        time: 2.375
        value: {x: -0.004186085, y: 0.0041904477, z: -0.7814725, w: 0.62391156}
        inSlope: {x: -0.008117363, y: -0.0011628751, z: 0.18476021, w: 0.23151496}
        outSlope: {x: -0.008117363, y: -0.0011628751, z: 0.18476021, w: 0.23151496}
        tangentMode: 0
      - serializedVersion: 2
        time: 3.0833333
        value: {x: -0.004458585, y: 0.003839166, z: -0.7434557, w: 0.66875935}
        inSlope: {x: 0.008382995, y: 0.0004673196, z: -0.15284884, w: -0.17011082}
        outSlope: {x: 0.008382995, y: 0.0004673196, z: -0.15284884, w: -0.17011082}
        tangentMode: 0
      - serializedVersion: 2
        time: 3.6666667
        value: {x: 0.0024716558, y: 0.001839374, z: -0.843126, w: 0.5377072}
        inSlope: {x: 0.016606163, y: -0.01838645, z: -0.09313923, w: -0.14585148}
        outSlope: {x: 0.016606163, y: -0.01838645, z: -0.09313923, w: -0.14585148}
        tangentMode: 0
      - serializedVersion: 2
        time: 4.3750005
        value: {x: 0.0040013893, y: -0.00603449, z: -0.8445088, w: 0.5354927}
        inSlope: {x: -0.00037481112, y: 0.00046830854, z: 0.010409841, w: 0.016410127}
        outSlope: {x: -0.00037481112, y: 0.00046830854, z: 0.010409841, w: 0.016410127}
        tangentMode: 0
      - serializedVersion: 2
        time: 4.9583335
        value: {x: 0.0019196984, y: -0.004710246, z: -0.7993859, w: 0.59935546}
        inSlope: {x: -0.0064521316, y: 0.0032900828, z: 0.12650931, w: 0.1698103}
        outSlope: {x: -0.0064521316, y: 0.0032900828, z: 0.12650931, w: 0.1698103}
        tangentMode: 0
      m_PreInfinity: 2
      m_PostInfinity: 2
      m_RotationOrder: 4
    path: roboticArm:joint1
  - curve:
      serializedVersion: 2
      m_Curve:
      - serializedVersion: 2
        time: 0
        value: {x: -0.005014811, y: -0.006954508, z: 0.81771356, w: 0.5755615}
        inSlope: {x: -0.00020484254, y: -0.00041394308, z: 0.0050826073, w: -0.0072312355}
        outSlope: {x: -0.00020484254, y: -0.00041394308, z: 0.0050826073, w: -0.0072312355}
        tangentMode: 0
      - serializedVersion: 2
        time: 1.1666667
        value: {x: -0.0070405304, y: -0.012513213, z: 0.8769748, w: 0.48032176}
        inSlope: {x: -0.0008664661, y: -0.0035248394, z: 0.03255704, w: -0.059529003}
        outSlope: {x: -0.0008664661, y: -0.0035248394, z: 0.03255704, w: -0.059529003}
        tangentMode: 0
      - serializedVersion: 2
        time: 2.25
        value: {x: -0.0061084465, y: -0.009483679, z: 0.84677917, w: 0.53182495}
        inSlope: {x: 0.0037150704, y: 0.009961963, z: -0.107114345, w: 0.17072192}
        outSlope: {x: 0.0037150704, y: 0.009961963, z: -0.107114345, w: 0.17072192}
        tangentMode: 0
      - serializedVersion: 2
        time: 2.9166667
        value: {x: -0.0039483923, y: -0.0050113406, z: 0.7924884, w: 0.6098536}
        inSlope: {x: 0.00016389455, y: 0.0002707026, z: -0.0037157626, w: 0.0048294184}
        outSlope: {x: 0.00016389455, y: 0.0002707026, z: -0.0037157626, w: 0.0048294184}
        tangentMode: 0
      - serializedVersion: 2
        time: 3.5416667
        value: {x: -0.0010615988, y: -0.0011141538, z: 0.7318067, w: 0.68151057}
        inSlope: {x: 0.013285246, y: 0.014759454, z: -0.26269943, w: 0.2817102}
        outSlope: {x: 0.013285246, y: 0.014759454, z: -0.26269943, w: 0.2817102}
        tangentMode: 0
      - serializedVersion: 2
        time: 4.0000005
        value: {x: 0.0052258903, y: 0.011544406, z: 0.55057156, w: 0.8346918}
        inSlope: {x: 0.020195886, y: 0.027737403, z: -0.46067387, w: 0.303634}
        outSlope: {x: 0.020195886, y: 0.027737403, z: -0.46067387, w: 0.303634}
        tangentMode: 0
      - serializedVersion: 2
        time: 4.3333335
        value: {x: 0.010127585, y: 0.01688528, z: 0.45086187, w: 0.89237654}
        inSlope: {x: 0.0013457703, y: 0.0011808474, z: -0.024988633, w: 0.0126257455}
        outSlope: {x: 0.0013457703, y: 0.0011808474, z: -0.024988633, w: 0.0126257455}
        tangentMode: 0
      - serializedVersion: 2
        time: 4.9583335
        value: {x: 0.010733741, y: 0.017418735, z: 0.43959728, w: 0.8980785}
        inSlope: {x: 0.0032745511, y: 0.0026029157, z: -0.058676057, w: 0.027778113}
        outSlope: {x: 0.0032745511, y: 0.0026029157, z: -0.058676057, w: 0.027778113}
        tangentMode: 0
      m_PreInfinity: 2
      m_PostInfinity: 2
      m_RotationOrder: 4
    path: roboticArm:joint1/roboticArm:joint2
  - curve:
      serializedVersion: 2
      m_Curve:
      - serializedVersion: 2
        time: 0
        value: {x: 0, y: -0, z: -0.007811785, w: 0.9999695}
        inSlope: {x: 0, y: 0, z: 0, w: 0}
        outSlope: {x: 0, y: 0, z: 0, w: 0}
        tangentMode: 0
      - serializedVersion: 2
        time: 2.0833333
        value: {x: 0, y: -0, z: -0.007811785, w: 0.9999695}
        inSlope: {x: 0, y: 0, z: 0, w: 0}
        outSlope: {x: 0, y: 0, z: 0, w: 0}
        tangentMode: 0
      - serializedVersion: 2
        time: 2.875
        value: {x: 0.000000001816511, y: -1.4190627e-11, z: -0.007811785, w: 0.9999695}
        inSlope: {x: 0.022860514, y: -0.00017858687, z: 0.00000017322567, w: -0.000021457632}
        outSlope: {x: 0.022860514, y: -0.00017858687, z: 0.00000017322567, w: -0.000021457632}
        tangentMode: 0
      - serializedVersion: 2
        time: 3.3333333
        value: {x: 0.20684205, y: -0.001615855, z: -0.0076428396, w: 0.9783432}
        inSlope: {x: 0.8366003, y: -0.0065355417, z: 0.0013907597, w: -0.17802797}
        outSlope: {x: 0.8366003, y: -0.0065355417, z: 0.0013907597, w: -0.17802797}
        tangentMode: 0
      - serializedVersion: 2
        time: 3.8333333
        value: {x: 0.7135702, y: -0.005574427, z: -0.0054726372, w: 0.7005403}
        inSlope: {x: 0.9972335, y: -0.007790412, z: 0.007945794, w: -1.0171238}
        outSlope: {x: 0.9972335, y: -0.007790412, z: 0.007945794, w: -1.0171238}
        tangentMode: 0
      - serializedVersion: 2
        time: 4.2083335
        value: {x: 0.9797446, y: -0.0076537877, z: -0.0015631772, w: 0.2000989}
        inSlope: {x: 0.3203327, y: -0.0025024484, z: 0.012263037, w: -1.5697649}
        outSlope: {x: 0.3203327, y: -0.0025024484, z: 0.012263037, w: -1.5697649}
        tangentMode: 0
      - serializedVersion: 2
        time: 4.5833335
        value: {x: 0.9210476, y: -0.0071952455, z: 0.0030417803, w: -0.38937163}
        inSlope: {x: -0.60952663, y: 0.0047616363, z: 0.011273868, w: -1.4431431}
        outSlope: {x: -0.60952663, y: 0.0047616363, z: 0.011273868, w: -1.4431431}
        tangentMode: 0
      - serializedVersion: 2
        time: 4.9583335
        value: {x: 0.5832475, y: -0.0045563434, z: 0.0063437596, w: -0.8120508}
        inSlope: {x: -1.0695925, y: 0.008355684, z: 0.0060610087, w: -0.7758562}
        outSlope: {x: -1.0695925, y: 0.008355684, z: 0.0060610087, w: -0.7758562}
        tangentMode: 0
      m_PreInfinity: 2
      m_PostInfinity: 2
      m_RotationOrder: 4
    path: roboticArm:joint1/roboticArm:joint2/roboticArm:joint3
  - curve:
      serializedVersion: 2
      m_Curve:
      - serializedVersion: 2
        time: 0
        value: {x: -0.0051398077, y: 0.0015652295, z: -0.00065480085, w: 0.99998534}
        inSlope: {x: -0.00027079135, y: -0.00019804202, z: -0.0039700256, w: -0.000002861023}
        outSlope: {x: -0.00027079135, y: -0.00019804202, z: -0.0039700256, w: -0.000002861023}
        tangentMode: 0
      - serializedVersion: 2
        time: 1.5000001
        value: {x: -0.009777425, y: -0.0013115423, z: -0.0640543, w: 0.9978977}
        inSlope: {x: 0.00019895282, y: 0.001603124, z: 0.03705212, w: 0.0023689265}
        outSlope: {x: 0.00019895282, y: 0.001603124, z: 0.03705212, w: 0.0023689265}
        tangentMode: 0
      - serializedVersion: 2
        time: 2.5
        value: {x: -0.008627239, y: 0.0048183165, z: 0.074911274, w: 0.99714124}
        inSlope: {x: 0.0027966222, y: 0.00615387, z: 0.1317124, w: -0.009874087}
        outSlope: {x: 0.0027966222, y: 0.00615387, z: 0.1317124, w: -0.009874087}
        tangentMode: 0
      - serializedVersion: 2
        time: 3.0833333
        value: {x: -0.004019366, y: 0.0065453234, z: 0.06706943, w: 0.99771875}
        inSlope: {x: 0.019371737, y: 0.0013304836, z: -0.3214938, w: 0.02131822}
        outSlope: {x: 0.019371737, y: 0.0013304836, z: -0.3214938, w: 0.02131822}
        tangentMode: 0
      - serializedVersion: 2
        time: 3.5833333
        value: {x: 0.009232227, y: 0.004097711, z: -0.2026198, w: 0.97920537}
        inSlope: {x: 0.027987761, y: -0.013573727, z: -0.6439076, w: -0.13347612}
        outSlope: {x: 0.027987761, y: -0.013573727, z: -0.6439076, w: -0.13347612}
        tangentMode: 0
      - serializedVersion: 2
        time: 4.0833335
        value: {x: 0.019270446, y: -0.004656723, z: -0.46884242, w: 0.8830594}
        inSlope: {x: 0.010123044, y: -0.014895495, z: -0.33010682, w: -0.17512508}
        outSlope: {x: 0.010123044, y: -0.014895495, z: -0.33010682, w: -0.17512508}
        tangentMode: 0
      - serializedVersion: 2
        time: 4.7083335
        value: {x: 0.021077786, y: -0.005608648, z: -0.5048876, w: 0.8629095}
        inSlope: {x: 0.0024176042, y: 0.005497734, z: 0.03930536, w: 0.022968957}
        outSlope: {x: 0.0024176042, y: 0.005497734, z: 0.03930536, w: 0.022968957}
        tangentMode: 0
      - serializedVersion: 2
        time: 4.9583335
        value: {x: 0.021555949, y: -0.00402969, z: -0.49237815, w: 0.87032974}
        inSlope: {x: 0.0013197722, y: 0.007013836, z: 0.06097583, w: 0.036008257}
        outSlope: {x: 0.0013197722, y: 0.007013836, z: 0.06097583, w: 0.036008257}
        tangentMode: 0
      m_PreInfinity: 2
      m_PostInfinity: 2
      m_RotationOrder: 4
    path: roboticArm:ikHandle1
  - curve:
      serializedVersion: 2
      m_Curve:
      - serializedVersion: 2
        time: 0
        value: {x: 0, y: -2.7755576e-17, z: -0, w: 1}
        inSlope: {x: 0, y: 0, z: 0, w: 0}
        outSlope: {x: 0, y: 0, z: 0, w: 0}
        tangentMode: 0
      - serializedVersion: 2
        time: 4.9583335
        value: {x: 0, y: -2.7755576e-17, z: 0, w: 1}
        inSlope: {x: 0, y: 0, z: 0, w: 0}
        outSlope: {x: 0, y: 0, z: 0, w: 0}
        tangentMode: 0
      m_PreInfinity: 2
      m_PostInfinity: 2
      m_RotationOrder: 4
    path: arm/roboticArm:robotic_arm/roboticArm:upper_body
  - curve:
      serializedVersion: 2
      m_Curve:
      - serializedVersion: 2
        time: 0
        value: {x: 0.5, y: -0.5, z: -0.5, w: 0.5}
        inSlope: {x: 0, y: 0, z: 0, w: 0}
        outSlope: {x: 0, y: 0, z: 0, w: 0}
        tangentMode: 0
      - serializedVersion: 2
        time: 4.9583335
        value: {x: 0.5, y: -0.5, z: -0.5, w: 0.5}
        inSlope: {x: 0, y: 0, z: 0, w: 0}
        outSlope: {x: 0, y: 0, z: 0, w: 0}
        tangentMode: 0
      m_PreInfinity: 2
      m_PostInfinity: 2
      m_RotationOrder: 4
    path: arm/roboticArm:robotic_arm/roboticArm:upper_body/roboticArm:pCylinder2 1
  - curve:
      serializedVersion: 2
      m_Curve:
      - serializedVersion: 2
        time: 0
        value: {x: -2.7755576e-17, y: -1.3877789e-16, z: 7.771561e-16, w: 1}
        inSlope: {x: 0, y: 0, z: 0, w: 0}
        outSlope: {x: 0, y: 0, z: 0, w: 0}
        tangentMode: 0
      - serializedVersion: 2
        time: 4.9583335
        value: {x: -2.7755576e-17, y: -1.3877789e-16, z: 7.771561e-16, w: 1}
        inSlope: {x: 0, y: 0, z: 0, w: 0}
        outSlope: {x: 0, y: 0, z: 0, w: 0}
        tangentMode: 0
      m_PreInfinity: 2
      m_PostInfinity: 2
      m_RotationOrder: 4
    path: arm/roboticArm:robotic_arm/roboticArm:upper_body/roboticArm:pCube3
  m_CompressedRotationCurves: []
  m_EulerCurves: []
  m_PositionCurves:
  - curve:
      serializedVersion: 2
      m_Curve:
      - serializedVersion: 2
        time: 0
        value: {x: -0.45439142, y: 2.3291352, z: 3.5527136e-17}
        inSlope: {x: 0, y: 0, z: 0}
        outSlope: {x: 0, y: 0, z: 0}
        tangentMode: 0
      - serializedVersion: 2
        time: 4.9583335
        value: {x: -0.45439142, y: 2.3291352, z: 3.5527136e-17}
        inSlope: {x: 0, y: 0, z: 0}
        outSlope: {x: 0, y: 0, z: 0}
        tangentMode: 0
      m_PreInfinity: 2
      m_PostInfinity: 2
      m_RotationOrder: 4
    path: roboticArm:joint1
  - curve:
      serializedVersion: 2
      m_Curve:
      - serializedVersion: 2
        time: 2.875
        value: {x: -2.4048924, y: 0.0011447147, z: -0.12393221}
        inSlope: {x: 0, y: 0, z: 0}
        outSlope: {x: 0, y: 0, z: 0}
        tangentMode: 0
      - serializedVersion: 2
        time: 4.9583335
        value: {x: -2.4048924, y: 0.0011447147, z: -0.12393221}
        inSlope: {x: 0, y: 0, z: 0}
        outSlope: {x: 0, y: 0, z: 0}
        tangentMode: 0
      m_PreInfinity: 2
      m_PostInfinity: 2
      m_RotationOrder: 4
    path: roboticArm:joint1/roboticArm:joint2/roboticArm:joint3
  - curve:
      serializedVersion: 2
      m_Curve:
      - serializedVersion: 2
        time: 0
        value: {x: -1.8432195, y: 5.1558995, z: -0.09999246}
        inSlope: {x: -0.0000043669042, y: 0.000034181234, z: -8.881784e-16}
        outSlope: {x: -0.0000043669042, y: 0.000034181234, z: -8.881784e-16}
        tangentMode: 0
      - serializedVersion: 2
        time: 1.4166667
        value: {x: -0.85213614, y: 4.892447, z: -0.09999248}
        inSlope: {x: -0.0000025358522, y: -0.11150085, z: -3.8064827e-16}
        outSlope: {x: 0.000002192233, y: -0.11158979, z: -8.881793e-16}
        tangentMode: 0
      - serializedVersion: 2
        time: 2.875
        value: {x: -2.6480806, y: 4.8351655, z: -0.09999259}
        inSlope: {x: 0.000044306405, y: -0.000048130467, z: -0}
        outSlope: {x: 0.000020212592, y: 0.000012190922, z: -0}
        tangentMode: 0
      - serializedVersion: 2
        time: 4.3333335
        value: {x: -0.3090352, y: 7.163102, z: -0.09999255}
        inSlope: {x: -0.0000045066245, y: -0.00008232667, z: -3.8064938e-16}
        outSlope: {x: -0.000007464657, y: -0.000014648325, z: -8.8817164e-16}
        tangentMode: 0
      - serializedVersion: 2
        time: 4.9583335
        value: {x: -0.9981684, y: 7.160981, z: -0.09999254}
        inSlope: {x: -1.7641768, y: -0.010174777, z: 0.000000020435875}
        outSlope: {x: -1.7641768, y: -0.010174777, z: 0.000000020435875}
        tangentMode: 0
      m_PreInfinity: 2
      m_PostInfinity: 2
      m_RotationOrder: 4
    path: roboticArm:ikHandle1
  - curve:
      serializedVersion: 2
      m_Curve:
      - serializedVersion: 2
        time: 0
        value: {x: -0, y: -7.105427e-17, z: 0}
        inSlope: {x: 0, y: 0, z: 0}
        outSlope: {x: 0, y: 0, z: 0}
        tangentMode: 0
      - serializedVersion: 2
        time: 4.9583335
        value: {x: 0, y: -7.105427e-17, z: 0}
        inSlope: {x: 0, y: 0, z: 0}
        outSlope: {x: 0, y: 0, z: 0}
        tangentMode: 0
      m_PreInfinity: 2
      m_PostInfinity: 2
      m_RotationOrder: 4
    path: arm/roboticArm:robotic_arm/roboticArm:upper_body
  - curve:
      serializedVersion: 2
      m_Curve:
      - serializedVersion: 2
        time: 0
        value: {x: -0.46419558, y: 2.7795415, z: -0.40995026}
        inSlope: {x: 0, y: 0, z: 0}
        outSlope: {x: 0, y: 0, z: 0}
        tangentMode: 0
      - serializedVersion: 2
        time: 4.9583335
        value: {x: -0.46419558, y: 2.7795415, z: -0.40995026}
        inSlope: {x: 0, y: 0, z: 0}
        outSlope: {x: 0, y: 0, z: 0}
        tangentMode: 0
      m_PreInfinity: 2
      m_PostInfinity: 2
      m_RotationOrder: 4
    path: arm/roboticArm:robotic_arm/roboticArm:upper_body/roboticArm:pCylinder2 1
  - curve:
      serializedVersion: 2
      m_Curve:
      - serializedVersion: 2
        time: 0
        value: {x: -3.114403, y: 5.6768036, z: -0.0892111}
        inSlope: {x: 0, y: 0, z: 0}
        outSlope: {x: 0, y: 0, z: 0}
        tangentMode: 0
      - serializedVersion: 2
        time: 4.9583335
        value: {x: -3.114403, y: 5.6768036, z: -0.0892111}
        inSlope: {x: 0, y: 0, z: 0}
        outSlope: {x: 0, y: 0, z: 0}
        tangentMode: 0
      m_PreInfinity: 2
      m_PostInfinity: 2
      m_RotationOrder: 4
    path: arm/roboticArm:robotic_arm/roboticArm:upper_body/roboticArm:pCube3
  m_ScaleCurves:
  - curve:
      serializedVersion: 2
      m_Curve:
      - serializedVersion: 2
        time: 0
        value: {x: 1, y: 1, z: 1}
        inSlope: {x: 0, y: 0, z: 0}
        outSlope: {x: 0, y: 0, z: 0}
        tangentMode: 0
      - serializedVersion: 2
        time: 4.9583335
        value: {x: 1, y: 1, z: 1}
        inSlope: {x: 0, y: 0, z: 0}
        outSlope: {x: 0, y: 0, z: 0}
        tangentMode: 0
      m_PreInfinity: 2
      m_PostInfinity: 2
      m_RotationOrder: 4
    path: roboticArm:joint1
  - curve:
      serializedVersion: 2
      m_Curve:
      - serializedVersion: 2
        time: 0
        value: {x: 1, y: 1, z: 1}
        inSlope: {x: 0, y: 0, z: 0}
        outSlope: {x: 0, y: 0, z: 0}
        tangentMode: 0
      - serializedVersion: 2
        time: 4.9583335
        value: {x: 1, y: 1, z: 1}
        inSlope: {x: 0, y: 0, z: 0}
        outSlope: {x: 0, y: 0, z: 0}
        tangentMode: 0
      m_PreInfinity: 2
      m_PostInfinity: 2
      m_RotationOrder: 4
    path: roboticArm:joint1/roboticArm:joint2
  - curve:
      serializedVersion: 2
      m_Curve:
      - serializedVersion: 2
        time: 0
        value: {x: 1, y: 1, z: 1}
        inSlope: {x: 0, y: 0, z: 0}
        outSlope: {x: 0, y: 0, z: 0}
        tangentMode: 0
      - serializedVersion: 2
        time: 4.9583335
        value: {x: 1, y: 1, z: 1}
        inSlope: {x: 0, y: 0, z: 0}
        outSlope: {x: 0, y: 0, z: 0}
        tangentMode: 0
      m_PreInfinity: 2
      m_PostInfinity: 2
      m_RotationOrder: 4
    path: roboticArm:joint1/roboticArm:joint2/roboticArm:joint3
  - curve:
      serializedVersion: 2
      m_Curve:
      - serializedVersion: 2
        time: 0
        value: {x: 1, y: 1, z: 1}
        inSlope: {x: 0, y: 0, z: 0}
        outSlope: {x: 0, y: 0, z: 0}
        tangentMode: 0
      - serializedVersion: 2
        time: 4.9583335
        value: {x: 1, y: 1, z: 1}
        inSlope: {x: 0, y: 0, z: 0}
        outSlope: {x: 0, y: 0, z: 0}
        tangentMode: 0
      m_PreInfinity: 2
      m_PostInfinity: 2
      m_RotationOrder: 4
    path: roboticArm:ikHandle1
  m_FloatCurves: []
  m_PPtrCurves: []
  m_SampleRate: 24
  m_WrapMode: 0
  m_Bounds:
    m_Center: {x: 0, y: 0, z: 0}
    m_Extent: {x: 0, y: 0, z: 0}
  m_ClipBindingConstant:
    genericBindings:
    - path: 2772208831
      attribute: 1
      script: {fileID: 0}
      classID: 4
      customType: 0
      isPPtrCurve: 0
    - path: 3163217115
      attribute: 2
      script: {fileID: 0}
      classID: 4
      customType: 0
      isPPtrCurve: 0
    - path: 3989104184
      attribute: 2
      script: {fileID: 0}
      classID: 4
      customType: 0
      isPPtrCurve: 0
    - path: 195391048
      attribute: 2
      script: {fileID: 0}
      classID: 4
      customType: 0
      isPPtrCurve: 0
    - path: 2772208831
      attribute: 2
      script: {fileID: 0}
      classID: 4
      customType: 0
      isPPtrCurve: 0
    - path: 3163217115
      attribute: 1
      script: {fileID: 0}
      classID: 4
      customType: 0
      isPPtrCurve: 0
    - path: 195391048
      attribute: 1
      script: {fileID: 0}
      classID: 4
      customType: 0
      isPPtrCurve: 0
    - path: 2342008828
      attribute: 1
      script: {fileID: 0}
      classID: 4
      customType: 0
      isPPtrCurve: 0
    - path: 2703315991
      attribute: 1
      script: {fileID: 0}
      classID: 4
      customType: 0
      isPPtrCurve: 0
    - path: 2316929179
      attribute: 1
      script: {fileID: 0}
      classID: 4
      customType: 0
      isPPtrCurve: 0
    - path: 2342008828
      attribute: 2
      script: {fileID: 0}
      classID: 4
      customType: 0
      isPPtrCurve: 0
    - path: 2703315991
      attribute: 2
      script: {fileID: 0}
      classID: 4
      customType: 0
      isPPtrCurve: 0
    - path: 2316929179
      attribute: 2
      script: {fileID: 0}
      classID: 4
      customType: 0
      isPPtrCurve: 0
    - path: 3163217115
      attribute: 3
      script: {fileID: 0}
      classID: 4
      customType: 0
      isPPtrCurve: 0
    - path: 3989104184
      attribute: 3
      script: {fileID: 0}
      classID: 4
      customType: 0
      isPPtrCurve: 0
    - path: 195391048
      attribute: 3
      script: {fileID: 0}
      classID: 4
      customType: 0
      isPPtrCurve: 0
    - path: 2772208831
      attribute: 3
      script: {fileID: 0}
      classID: 4
      customType: 0
      isPPtrCurve: 0
    pptrCurveMapping: []
  m_AnimationClipSettings:
    serializedVersion: 2
    m_AdditiveReferencePoseClip: {fileID: 0}
    m_AdditiveReferencePoseTime: 0
    m_StartTime: 0
    m_StopTime: 4.9583335
    m_OrientationOffsetY: 0
    m_Level: 0
    m_CycleOffset: 0
    m_HasAdditiveReferencePose: 0
    m_LoopTime: 1
    m_LoopBlend: 0
    m_LoopBlendOrientation: 0
    m_LoopBlendPositionY: 0
    m_LoopBlendPositionXZ: 0
    m_KeepOriginalOrientation: 0
    m_KeepOriginalPositionY: 1
    m_KeepOriginalPositionXZ: 0
    m_HeightFromFeet: 0
    m_Mirror: 0
  m_EditorCurves:
  - curve:
      serializedVersion: 2
      m_Curve:
      - serializedVersion: 2
        time: 0
        value: 0.0007812763
        inSlope: 0.0001910585
        outSlope: 0.0001910585
        tangentMode: 0
      - serializedVersion: 2
        time: 1.0000001
        value: 0.0037237396
        inSlope: 0.0039889626
        outSlope: 0.0039889626
        tangentMode: 0
      - serializedVersion: 2
        time: 1.7083334
        value: 0.0030024212
        inSlope: -0.0096322205
        outSlope: -0.0096322205
        tangentMode: 0
      - serializedVersion: 2
        time: 2.375
        value: -0.004186085
        inSlope: -0.008117363
        outSlope: -0.008117363
        tangentMode: 0
      - serializedVersion: 2
        time: 3.0833333
        value: -0.004458585
        inSlope: 0.008382995
        outSlope: 0.008382995
        tangentMode: 0
      - serializedVersion: 2
        time: 3.6666667
        value: 0.0024716558
        inSlope: 0.016606163
        outSlope: 0.016606163
        tangentMode: 0
      - serializedVersion: 2
        time: 4.3750005
        value: 0.0040013893
        inSlope: -0.00037481112
        outSlope: -0.00037481112
        tangentMode: 0
      - serializedVersion: 2
        time: 4.9583335
        value: 0.0019196984
        inSlope: -0.0064521316
        outSlope: -0.0064521316
        tangentMode: 0
      m_PreInfinity: 2
      m_PostInfinity: 2
      m_RotationOrder: 4
    attribute: m_LocalRotation.x
    path: roboticArm:joint1
    classID: 4
    script: {fileID: 0}
  - curve:
      serializedVersion: 2
      m_Curve:
      - serializedVersion: 2
        time: 0
        value: 0.0036492196
        inSlope: 0.00001055561
        outSlope: 0.00001055561
        tangentMode: 0
      - serializedVersion: 2
        time: 1.0000001
        value: 0.00348891
        inSlope: -0.0006814428
        outSlope: -0.0006814428
        tangentMode: 0
      - serializedVersion: 2
        time: 1.7083334
        value: 0.0038473338
        inSlope: 0.002416862
        outSlope: 0.002416862
        tangentMode: 0
      - serializedVersion: 2
        time: 2.375
        value: 0.0041904477
        inSlope: -0.0011628751
        outSlope: -0.0011628751
        tangentMode: 0
      - serializedVersion: 2
        time: 3.0833333
        value: 0.003839166
        inSlope: 0.0004673196
        outSlope: 0.0004673196
        tangentMode: 0
      - serializedVersion: 2
        time: 3.6666667
        value: 0.001839374
        inSlope: -0.01838645
        outSlope: -0.01838645
        tangentMode: 0
      - serializedVersion: 2
        time: 4.3750005
        value: -0.00603449
        inSlope: 0.00046830854
        outSlope: 0.00046830854
        tangentMode: 0
      - serializedVersion: 2
        time: 4.9583335
        value: -0.004710246
        inSlope: 0.0032900828
        outSlope: 0.0032900828
        tangentMode: 0
      m_PreInfinity: 2
      m_PostInfinity: 2
      m_RotationOrder: 4
    attribute: m_LocalRotation.y
    path: roboticArm:joint1
    classID: 4
    script: {fileID: 0}
  - curve:
      serializedVersion: 2
      m_Curve:
      - serializedVersion: 2
        time: 0
        value: -0.8181245
        inSlope: -0.0061569214
        outSlope: -0.0061569214
        tangentMode: 0
      - serializedVersion: 2
        time: 1.0000001
        value: -0.8933215
        inSlope: -0.077666
        outSlope: -0.077666
        tangentMode: 0
      - serializedVersion: 2
        time: 1.7083334
        value: -0.8958207
        inSlope: 0.104361475
        outSlope: 0.104361475
        tangentMode: 0
      - serializedVersion: 2
        time: 2.375
        value: -0.7814725
        inSlope: 0.18476021
        outSlope: 0.18476021
        tangentMode: 0
      - serializedVersion: 2
        time: 3.0833333
        value: -0.7434557
        inSlope: -0.15284884
        outSlope: -0.15284884
        tangentMode: 0
      - serializedVersion: 2
        time: 3.6666667
        value: -0.843126
        inSlope: -0.09313923
        outSlope: -0.09313923
        tangentMode: 0
      - serializedVersion: 2
        time: 4.3750005
        value: -0.8445088
        inSlope: 0.010409841
        outSlope: 0.010409841
        tangentMode: 0
      - serializedVersion: 2
        time: 4.9583335
        value: -0.7993859
        inSlope: 0.12650931
        outSlope: 0.12650931
        tangentMode: 0
      m_PreInfinity: 2
      m_PostInfinity: 2
      m_RotationOrder: 4
    attribute: m_LocalRotation.z
    path: roboticArm:joint1
    classID: 4
    script: {fileID: 0}
  - curve:
      serializedVersion: 2
      m_Curve:
      - serializedVersion: 2
        time: 0
        value: 0.575029
        inSlope: -0.008760452
        outSlope: -0.008760452
        tangentMode: 0
      - serializedVersion: 2
        time: 1.0000001
        value: 0.44938913
        inSlope: -0.15434639
        outSlope: -0.15434639
        tangentMode: 0
      - serializedVersion: 2
        time: 1.7083334
        value: 0.4443889
        inSlope: 0.21014452
        outSlope: 0.21014452
        tangentMode: 0
      - serializedVersion: 2
        time: 2.375
        value: 0.62391156
        inSlope: 0.23151496
        outSlope: 0.23151496
        tangentMode: 0
      - serializedVersion: 2
        time: 3.0833333
        value: 0.66875935
        inSlope: -0.17011082
        outSlope: -0.17011082
        tangentMode: 0
      - serializedVersion: 2
        time: 3.6666667
        value: 0.5377072
        inSlope: -0.14585148
        outSlope: -0.14585148
        tangentMode: 0
      - serializedVersion: 2
        time: 4.3750005
        value: 0.5354927
        inSlope: 0.016410127
        outSlope: 0.016410127
        tangentMode: 0
      - serializedVersion: 2
        time: 4.9583335
        value: 0.59935546
        inSlope: 0.1698103
        outSlope: 0.1698103
        tangentMode: 0
      m_PreInfinity: 2
      m_PostInfinity: 2
      m_RotationOrder: 4
    attribute: m_LocalRotation.w
    path: roboticArm:joint1
    classID: 4
    script: {fileID: 0}
  - curve:
      serializedVersion: 2
      m_Curve:
      - serializedVersion: 2
        time: 0
        value: -0.005014811
        inSlope: -0.00020484254
        outSlope: -0.00020484254
        tangentMode: 0
      - serializedVersion: 2
        time: 1.1666667
        value: -0.0070405304
        inSlope: -0.0008664661
        outSlope: -0.0008664661
        tangentMode: 0
      - serializedVersion: 2
        time: 2.25
        value: -0.0061084465
        inSlope: 0.0037150704
        outSlope: 0.0037150704
        tangentMode: 0
      - serializedVersion: 2
        time: 2.9166667
        value: -0.0039483923
        inSlope: 0.00016389455
        outSlope: 0.00016389455
        tangentMode: 0
      - serializedVersion: 2
        time: 3.5416667
        value: -0.0010615988
        inSlope: 0.013285246
        outSlope: 0.013285246
        tangentMode: 0
      - serializedVersion: 2
        time: 4.0000005
        value: 0.0052258903
        inSlope: 0.020195886
        outSlope: 0.020195886
        tangentMode: 0
      - serializedVersion: 2
        time: 4.3333335
        value: 0.010127585
        inSlope: 0.0013457703
        outSlope: 0.0013457703
        tangentMode: 0
      - serializedVersion: 2
        time: 4.9583335
        value: 0.010733741
        inSlope: 0.0032745511
        outSlope: 0.0032745511
        tangentMode: 0
      m_PreInfinity: 2
      m_PostInfinity: 2
      m_RotationOrder: 4
    attribute: m_LocalRotation.x
    path: roboticArm:joint1/roboticArm:joint2
    classID: 4
    script: {fileID: 0}
  - curve:
      serializedVersion: 2
      m_Curve:
      - serializedVersion: 2
        time: 0
        value: -0.006954508
        inSlope: -0.00041394308
        outSlope: -0.00041394308
        tangentMode: 0
      - serializedVersion: 2
        time: 1.1666667
        value: -0.012513213
        inSlope: -0.0035248394
        outSlope: -0.0035248394
        tangentMode: 0
      - serializedVersion: 2
        time: 2.25
        value: -0.009483679
        inSlope: 0.009961963
        outSlope: 0.009961963
        tangentMode: 0
      - serializedVersion: 2
        time: 2.9166667
        value: -0.0050113406
        inSlope: 0.0002707026
        outSlope: 0.0002707026
        tangentMode: 0
      - serializedVersion: 2
        time: 3.5416667
        value: -0.0011141538
        inSlope: 0.014759454
        outSlope: 0.014759454
        tangentMode: 0
      - serializedVersion: 2
        time: 4.0000005
        value: 0.011544406
        inSlope: 0.027737403
        outSlope: 0.027737403
        tangentMode: 0
      - serializedVersion: 2
        time: 4.3333335
        value: 0.01688528
        inSlope: 0.0011808474
        outSlope: 0.0011808474
        tangentMode: 0
      - serializedVersion: 2
        time: 4.9583335
        value: 0.017418735
        inSlope: 0.0026029157
        outSlope: 0.0026029157
        tangentMode: 0
      m_PreInfinity: 2
      m_PostInfinity: 2
      m_RotationOrder: 4
    attribute: m_LocalRotation.y
    path: roboticArm:joint1/roboticArm:joint2
    classID: 4
    script: {fileID: 0}
  - curve:
      serializedVersion: 2
      m_Curve:
      - serializedVersion: 2
        time: 0
        value: 0.81771356
        inSlope: 0.0050826073
        outSlope: 0.0050826073
        tangentMode: 0
      - serializedVersion: 2
        time: 1.1666667
        value: 0.8769748
        inSlope: 0.03255704
        outSlope: 0.03255704
        tangentMode: 0
      - serializedVersion: 2
        time: 2.25
        value: 0.84677917
        inSlope: -0.107114345
        outSlope: -0.107114345
        tangentMode: 0
      - serializedVersion: 2
        time: 2.9166667
        value: 0.7924884
        inSlope: -0.0037157626
        outSlope: -0.0037157626
        tangentMode: 0
      - serializedVersion: 2
        time: 3.5416667
        value: 0.7318067
        inSlope: -0.26269943
        outSlope: -0.26269943
        tangentMode: 0
      - serializedVersion: 2
        time: 4.0000005
        value: 0.55057156
        inSlope: -0.46067387
        outSlope: -0.46067387
        tangentMode: 0
      - serializedVersion: 2
        time: 4.3333335
        value: 0.45086187
        inSlope: -0.024988633
        outSlope: -0.024988633
        tangentMode: 0
      - serializedVersion: 2
        time: 4.9583335
        value: 0.43959728
        inSlope: -0.058676057
        outSlope: -0.058676057
        tangentMode: 0
      m_PreInfinity: 2
      m_PostInfinity: 2
      m_RotationOrder: 4
    attribute: m_LocalRotation.z
    path: roboticArm:joint1/roboticArm:joint2
    classID: 4
    script: {fileID: 0}
  - curve:
      serializedVersion: 2
      m_Curve:
      - serializedVersion: 2
        time: 0
        value: 0.5755615
        inSlope: -0.0072312355
        outSlope: -0.0072312355
        tangentMode: 0
      - serializedVersion: 2
        time: 1.1666667
        value: 0.48032176
        inSlope: -0.059529003
        outSlope: -0.059529003
        tangentMode: 0
      - serializedVersion: 2
        time: 2.25
        value: 0.53182495
        inSlope: 0.17072192
        outSlope: 0.17072192
        tangentMode: 0
      - serializedVersion: 2
        time: 2.9166667
        value: 0.6098536
        inSlope: 0.0048294184
        outSlope: 0.0048294184
        tangentMode: 0
      - serializedVersion: 2
        time: 3.5416667
        value: 0.68151057
        inSlope: 0.2817102
        outSlope: 0.2817102
        tangentMode: 0
      - serializedVersion: 2
        time: 4.0000005
        value: 0.8346918
        inSlope: 0.303634
        outSlope: 0.303634
        tangentMode: 0
      - serializedVersion: 2
        time: 4.3333335
        value: 0.89237654
        inSlope: 0.0126257455
        outSlope: 0.0126257455
        tangentMode: 0
      - serializedVersion: 2
        time: 4.9583335
        value: 0.8980785
        inSlope: 0.027778113
        outSlope: 0.027778113
        tangentMode: 0
      m_PreInfinity: 2
      m_PostInfinity: 2
      m_RotationOrder: 4
    attribute: m_LocalRotation.w
    path: roboticArm:joint1/roboticArm:joint2
    classID: 4
    script: {fileID: 0}
  - curve:
      serializedVersion: 2
      m_Curve:
      - serializedVersion: 2
        time: 0
        value: 0
        inSlope: 0
        outSlope: 0
        tangentMode: 0
      - serializedVersion: 2
        time: 2.0833333
        value: 0
        inSlope: 0
        outSlope: 0
        tangentMode: 0
      - serializedVersion: 2
        time: 2.875
        value: 0.000000001816511
        inSlope: 0.022860514
        outSlope: 0.022860514
        tangentMode: 0
      - serializedVersion: 2
        time: 3.3333333
        value: 0.20684205
        inSlope: 0.8366003
        outSlope: 0.8366003
        tangentMode: 0
      - serializedVersion: 2
        time: 3.8333333
        value: 0.7135702
        inSlope: 0.9972335
        outSlope: 0.9972335
        tangentMode: 0
      - serializedVersion: 2
        time: 4.2083335
        value: 0.9797446
        inSlope: 0.3203327
        outSlope: 0.3203327
        tangentMode: 0
      - serializedVersion: 2
        time: 4.5833335
        value: 0.9210476
        inSlope: -0.60952663
        outSlope: -0.60952663
        tangentMode: 0
      - serializedVersion: 2
        time: 4.9583335
        value: 0.5832475
        inSlope: -1.0695925
        outSlope: -1.0695925
        tangentMode: 0
      m_PreInfinity: 2
      m_PostInfinity: 2
      m_RotationOrder: 4
    attribute: m_LocalRotation.x
    path: roboticArm:joint1/roboticArm:joint2/roboticArm:joint3
    classID: 4
    script: {fileID: 0}
  - curve:
      serializedVersion: 2
      m_Curve:
      - serializedVersion: 2
        time: 0
        value: -0
        inSlope: 0
        outSlope: 0
        tangentMode: 0
      - serializedVersion: 2
        time: 2.0833333
        value: -0
        inSlope: 0
        outSlope: 0
        tangentMode: 0
      - serializedVersion: 2
        time: 2.875
        value: -1.4190627e-11
        inSlope: -0.00017858687
        outSlope: -0.00017858687
        tangentMode: 0
      - serializedVersion: 2
        time: 3.3333333
        value: -0.001615855
        inSlope: -0.0065355417
        outSlope: -0.0065355417
        tangentMode: 0
      - serializedVersion: 2
        time: 3.8333333
        value: -0.005574427
        inSlope: -0.007790412
        outSlope: -0.007790412
        tangentMode: 0
      - serializedVersion: 2
        time: 4.2083335
        value: -0.0076537877
        inSlope: -0.0025024484
        outSlope: -0.0025024484
        tangentMode: 0
      - serializedVersion: 2
        time: 4.5833335
        value: -0.0071952455
        inSlope: 0.0047616363
        outSlope: 0.0047616363
        tangentMode: 0
      - serializedVersion: 2
        time: 4.9583335
        value: -0.0045563434
        inSlope: 0.008355684
        outSlope: 0.008355684
        tangentMode: 0
      m_PreInfinity: 2
      m_PostInfinity: 2
      m_RotationOrder: 4
    attribute: m_LocalRotation.y
    path: roboticArm:joint1/roboticArm:joint2/roboticArm:joint3
    classID: 4
    script: {fileID: 0}
  - curve:
      serializedVersion: 2
      m_Curve:
      - serializedVersion: 2
        time: 0
        value: -0.007811785
        inSlope: 0
        outSlope: 0
        tangentMode: 0
      - serializedVersion: 2
        time: 2.0833333
        value: -0.007811785
        inSlope: 0
        outSlope: 0
        tangentMode: 0
      - serializedVersion: 2
        time: 2.875
        value: -0.007811785
        inSlope: 0.00000017322567
        outSlope: 0.00000017322567
        tangentMode: 0
      - serializedVersion: 2
        time: 3.3333333
        value: -0.0076428396
        inSlope: 0.0013907597
        outSlope: 0.0013907597
        tangentMode: 0
      - serializedVersion: 2
        time: 3.8333333
        value: -0.0054726372
        inSlope: 0.007945794
        outSlope: 0.007945794
        tangentMode: 0
      - serializedVersion: 2
        time: 4.2083335
        value: -0.0015631772
        inSlope: 0.012263037
        outSlope: 0.012263037
        tangentMode: 0
      - serializedVersion: 2
        time: 4.5833335
        value: 0.0030417803
        inSlope: 0.011273868
        outSlope: 0.011273868
        tangentMode: 0
      - serializedVersion: 2
        time: 4.9583335
        value: 0.0063437596
        inSlope: 0.0060610087
        outSlope: 0.0060610087
        tangentMode: 0
      m_PreInfinity: 2
      m_PostInfinity: 2
      m_RotationOrder: 4
    attribute: m_LocalRotation.z
    path: roboticArm:joint1/roboticArm:joint2/roboticArm:joint3
    classID: 4
    script: {fileID: 0}
  - curve:
      serializedVersion: 2
      m_Curve:
      - serializedVersion: 2
        time: 0
        value: 0.9999695
        inSlope: 0
        outSlope: 0
        tangentMode: 0
      - serializedVersion: 2
        time: 2.0833333
        value: 0.9999695
        inSlope: 0
        outSlope: 0
        tangentMode: 0
      - serializedVersion: 2
        time: 2.875
        value: 0.9999695
        inSlope: -0.000021457632
        outSlope: -0.000021457632
        tangentMode: 0
      - serializedVersion: 2
        time: 3.3333333
        value: 0.9783432
        inSlope: -0.17802797
        outSlope: -0.17802797
        tangentMode: 0
      - serializedVersion: 2
        time: 3.8333333
        value: 0.7005403
        inSlope: -1.0171238
        outSlope: -1.0171238
        tangentMode: 0
      - serializedVersion: 2
        time: 4.2083335
        value: 0.2000989
        inSlope: -1.5697649
        outSlope: -1.5697649
        tangentMode: 0
      - serializedVersion: 2
        time: 4.5833335
        value: -0.38937163
        inSlope: -1.4431431
        outSlope: -1.4431431
        tangentMode: 0
      - serializedVersion: 2
        time: 4.9583335
        value: -0.8120508
        inSlope: -0.7758562
        outSlope: -0.7758562
        tangentMode: 0
      m_PreInfinity: 2
      m_PostInfinity: 2
      m_RotationOrder: 4
    attribute: m_LocalRotation.w
    path: roboticArm:joint1/roboticArm:joint2/roboticArm:joint3
    classID: 4
    script: {fileID: 0}
  - curve:
      serializedVersion: 2
      m_Curve:
      - serializedVersion: 2
        time: 0
        value: -0.0051398077
        inSlope: -0.00027079135
        outSlope: -0.00027079135
        tangentMode: 0
      - serializedVersion: 2
        time: 1.5000001
        value: -0.009777425
        inSlope: 0.00019895282
        outSlope: 0.00019895282
        tangentMode: 0
      - serializedVersion: 2
        time: 2.5
        value: -0.008627239
        inSlope: 0.0027966222
        outSlope: 0.0027966222
        tangentMode: 0
      - serializedVersion: 2
        time: 3.0833333
        value: -0.004019366
        inSlope: 0.019371737
        outSlope: 0.019371737
        tangentMode: 0
      - serializedVersion: 2
        time: 3.5833333
        value: 0.009232227
        inSlope: 0.027987761
        outSlope: 0.027987761
        tangentMode: 0
      - serializedVersion: 2
        time: 4.0833335
        value: 0.019270446
        inSlope: 0.010123044
        outSlope: 0.010123044
        tangentMode: 0
      - serializedVersion: 2
        time: 4.7083335
        value: 0.021077786
        inSlope: 0.0024176042
        outSlope: 0.0024176042
        tangentMode: 0
      - serializedVersion: 2
        time: 4.9583335
        value: 0.021555949
        inSlope: 0.0013197722
        outSlope: 0.0013197722
        tangentMode: 0
      m_PreInfinity: 2
      m_PostInfinity: 2
      m_RotationOrder: 4
    attribute: m_LocalRotation.x
    path: roboticArm:ikHandle1
    classID: 4
    script: {fileID: 0}
  - curve:
      serializedVersion: 2
      m_Curve:
      - serializedVersion: 2
        time: 0
        value: 0.0015652295
        inSlope: -0.00019804202
        outSlope: -0.00019804202
        tangentMode: 0
      - serializedVersion: 2
        time: 1.5000001
        value: -0.0013115423
        inSlope: 0.001603124
        outSlope: 0.001603124
        tangentMode: 0
      - serializedVersion: 2
        time: 2.5
        value: 0.0048183165
        inSlope: 0.00615387
        outSlope: 0.00615387
        tangentMode: 0
      - serializedVersion: 2
        time: 3.0833333
        value: 0.0065453234
        inSlope: 0.0013304836
        outSlope: 0.0013304836
        tangentMode: 0
      - serializedVersion: 2
        time: 3.5833333
        value: 0.004097711
        inSlope: -0.013573727
        outSlope: -0.013573727
        tangentMode: 0
      - serializedVersion: 2
        time: 4.0833335
        value: -0.004656723
        inSlope: -0.014895495
        outSlope: -0.014895495
        tangentMode: 0
      - serializedVersion: 2
        time: 4.7083335
        value: -0.005608648
        inSlope: 0.005497734
        outSlope: 0.005497734
        tangentMode: 0
      - serializedVersion: 2
        time: 4.9583335
        value: -0.00402969
        inSlope: 0.007013836
        outSlope: 0.007013836
        tangentMode: 0
      m_PreInfinity: 2
      m_PostInfinity: 2
      m_RotationOrder: 4
    attribute: m_LocalRotation.y
    path: roboticArm:ikHandle1
    classID: 4
    script: {fileID: 0}
  - curve:
      serializedVersion: 2
      m_Curve:
      - serializedVersion: 2
        time: 0
        value: -0.00065480085
        inSlope: -0.0039700256
        outSlope: -0.0039700256
        tangentMode: 0
      - serializedVersion: 2
        time: 1.5000001
        value: -0.0640543
        inSlope: 0.03705212
        outSlope: 0.03705212
        tangentMode: 0
      - serializedVersion: 2
        time: 2.5
        value: 0.074911274
        inSlope: 0.1317124
        outSlope: 0.1317124
        tangentMode: 0
      - serializedVersion: 2
        time: 3.0833333
        value: 0.06706943
        inSlope: -0.3214938
        outSlope: -0.3214938
        tangentMode: 0
      - serializedVersion: 2
        time: 3.5833333
        value: -0.2026198
        inSlope: -0.6439076
        outSlope: -0.6439076
        tangentMode: 0
      - serializedVersion: 2
        time: 4.0833335
        value: -0.46884242
        inSlope: -0.33010682
        outSlope: -0.33010682
        tangentMode: 0
      - serializedVersion: 2
        time: 4.7083335
        value: -0.5048876
        inSlope: 0.03930536
        outSlope: 0.03930536
        tangentMode: 0
      - serializedVersion: 2
        time: 4.9583335
        value: -0.49237815
        inSlope: 0.06097583
        outSlope: 0.06097583
        tangentMode: 0
      m_PreInfinity: 2
      m_PostInfinity: 2
      m_RotationOrder: 4
    attribute: m_LocalRotation.z
    path: roboticArm:ikHandle1
    classID: 4
    script: {fileID: 0}
  - curve:
      serializedVersion: 2
      m_Curve:
      - serializedVersion: 2
        time: 0
        value: 0.99998534
        inSlope: -0.000002861023
        outSlope: -0.000002861023
        tangentMode: 0
      - serializedVersion: 2
        time: 1.5000001
        value: 0.9978977
        inSlope: 0.0023689265
        outSlope: 0.0023689265
        tangentMode: 0
      - serializedVersion: 2
        time: 2.5
        value: 0.99714124
        inSlope: -0.009874087
        outSlope: -0.009874087
        tangentMode: 0
      - serializedVersion: 2
        time: 3.0833333
        value: 0.99771875
        inSlope: 0.02131822
        outSlope: 0.02131822
        tangentMode: 0
      - serializedVersion: 2
        time: 3.5833333
        value: 0.97920537
        inSlope: -0.13347612
        outSlope: -0.13347612
        tangentMode: 0
      - serializedVersion: 2
        time: 4.0833335
        value: 0.8830594
        inSlope: -0.17512508
        outSlope: -0.17512508
        tangentMode: 0
      - serializedVersion: 2
        time: 4.7083335
        value: 0.8629095
        inSlope: 0.022968957
        outSlope: 0.022968957
        tangentMode: 0
      - serializedVersion: 2
        time: 4.9583335
        value: 0.87032974
        inSlope: 0.036008257
        outSlope: 0.036008257
        tangentMode: 0
      m_PreInfinity: 2
      m_PostInfinity: 2
      m_RotationOrder: 4
    attribute: m_LocalRotation.w
    path: roboticArm:ikHandle1
    classID: 4
    script: {fileID: 0}
  - curve:
      serializedVersion: 2
      m_Curve:
      - serializedVersion: 2
        time: 0
        value: 0
        inSlope: 0
        outSlope: 0
        tangentMode: 0
      - serializedVersion: 2
        time: 4.9583335
        value: 0
        inSlope: 0
        outSlope: 0
        tangentMode: 0
      m_PreInfinity: 2
      m_PostInfinity: 2
      m_RotationOrder: 4
    attribute: m_LocalRotation.x
    path: arm/roboticArm:robotic_arm/roboticArm:upper_body
    classID: 4
    script: {fileID: 0}
  - curve:
      serializedVersion: 2
      m_Curve:
      - serializedVersion: 2
        time: 0
        value: -2.7755576e-17
        inSlope: 0
        outSlope: 0
        tangentMode: 0
      - serializedVersion: 2
        time: 4.9583335
        value: -2.7755576e-17
        inSlope: 0
        outSlope: 0
        tangentMode: 0
      m_PreInfinity: 2
      m_PostInfinity: 2
      m_RotationOrder: 4
    attribute: m_LocalRotation.y
    path: arm/roboticArm:robotic_arm/roboticArm:upper_body
    classID: 4
    script: {fileID: 0}
  - curve:
      serializedVersion: 2
      m_Curve:
      - serializedVersion: 2
        time: 0
        value: -0
        inSlope: 0
        outSlope: 0
        tangentMode: 0
      - serializedVersion: 2
        time: 4.9583335
        value: 0
        inSlope: 0
        outSlope: 0
        tangentMode: 0
      m_PreInfinity: 2
      m_PostInfinity: 2
      m_RotationOrder: 4
    attribute: m_LocalRotation.z
    path: arm/roboticArm:robotic_arm/roboticArm:upper_body
    classID: 4
    script: {fileID: 0}
  - curve:
      serializedVersion: 2
      m_Curve:
      - serializedVersion: 2
        time: 0
        value: 1
        inSlope: 0
        outSlope: 0
        tangentMode: 0
      - serializedVersion: 2
        time: 4.9583335
        value: 1
        inSlope: 0
        outSlope: 0
        tangentMode: 0
      m_PreInfinity: 2
      m_PostInfinity: 2
      m_RotationOrder: 4
    attribute: m_LocalRotation.w
    path: arm/roboticArm:robotic_arm/roboticArm:upper_body
    classID: 4
    script: {fileID: 0}
  - curve:
      serializedVersion: 2
      m_Curve:
      - serializedVersion: 2
        time: 0
        value: 0.5
        inSlope: 0
        outSlope: 0
        tangentMode: 0
      - serializedVersion: 2
        time: 4.9583335
        value: 0.5
        inSlope: 0
        outSlope: 0
        tangentMode: 0
      m_PreInfinity: 2
      m_PostInfinity: 2
      m_RotationOrder: 4
    attribute: m_LocalRotation.x
    path: arm/roboticArm:robotic_arm/roboticArm:upper_body/roboticArm:pCylinder2 1
    classID: 4
    script: {fileID: 0}
  - curve:
      serializedVersion: 2
      m_Curve:
      - serializedVersion: 2
        time: 0
        value: -0.5
        inSlope: 0
        outSlope: 0
        tangentMode: 0
      - serializedVersion: 2
        time: 4.9583335
        value: -0.5
        inSlope: 0
        outSlope: 0
        tangentMode: 0
      m_PreInfinity: 2
      m_PostInfinity: 2
      m_RotationOrder: 4
    attribute: m_LocalRotation.y
    path: arm/roboticArm:robotic_arm/roboticArm:upper_body/roboticArm:pCylinder2 1
    classID: 4
    script: {fileID: 0}
  - curve:
      serializedVersion: 2
      m_Curve:
      - serializedVersion: 2
        time: 0
        value: -0.5
        inSlope: 0
        outSlope: 0
        tangentMode: 0
      - serializedVersion: 2
        time: 4.9583335
        value: -0.5
        inSlope: 0
        outSlope: 0
        tangentMode: 0
      m_PreInfinity: 2
      m_PostInfinity: 2
      m_RotationOrder: 4
    attribute: m_LocalRotation.z
    path: arm/roboticArm:robotic_arm/roboticArm:upper_body/roboticArm:pCylinder2 1
    classID: 4
    script: {fileID: 0}
  - curve:
      serializedVersion: 2
      m_Curve:
      - serializedVersion: 2
        time: 0
        value: 0.5
        inSlope: 0
        outSlope: 0
        tangentMode: 0
      - serializedVersion: 2
        time: 4.9583335
        value: 0.5
        inSlope: 0
        outSlope: 0
        tangentMode: 0
      m_PreInfinity: 2
      m_PostInfinity: 2
      m_RotationOrder: 4
    attribute: m_LocalRotation.w
    path: arm/roboticArm:robotic_arm/roboticArm:upper_body/roboticArm:pCylinder2 1
    classID: 4
    script: {fileID: 0}
  - curve:
      serializedVersion: 2
      m_Curve:
      - serializedVersion: 2
        time: 0
        value: -2.7755576e-17
        inSlope: 0
        outSlope: 0
        tangentMode: 0
      - serializedVersion: 2
        time: 4.9583335
        value: -2.7755576e-17
        inSlope: 0
        outSlope: 0
        tangentMode: 0
      m_PreInfinity: 2
      m_PostInfinity: 2
      m_RotationOrder: 4
    attribute: m_LocalRotation.x
    path: arm/roboticArm:robotic_arm/roboticArm:upper_body/roboticArm:pCube3
    classID: 4
    script: {fileID: 0}
  - curve:
      serializedVersion: 2
      m_Curve:
      - serializedVersion: 2
        time: 0
        value: -1.3877789e-16
        inSlope: 0
        outSlope: 0
        tangentMode: 0
      - serializedVersion: 2
        time: 4.9583335
        value: -1.3877789e-16
        inSlope: 0
        outSlope: 0
        tangentMode: 0
      m_PreInfinity: 2
      m_PostInfinity: 2
      m_RotationOrder: 4
    attribute: m_LocalRotation.y
    path: arm/roboticArm:robotic_arm/roboticArm:upper_body/roboticArm:pCube3
    classID: 4
    script: {fileID: 0}
  - curve:
      serializedVersion: 2
      m_Curve:
      - serializedVersion: 2
        time: 0
        value: 7.771561e-16
        inSlope: 0
        outSlope: 0
        tangentMode: 0
      - serializedVersion: 2
        time: 4.9583335
        value: 7.771561e-16
        inSlope: 0
        outSlope: 0
        tangentMode: 0
      m_PreInfinity: 2
      m_PostInfinity: 2
      m_RotationOrder: 4
    attribute: m_LocalRotation.z
    path: arm/roboticArm:robotic_arm/roboticArm:upper_body/roboticArm:pCube3
    classID: 4
    script: {fileID: 0}
  - curve:
      serializedVersion: 2
      m_Curve:
      - serializedVersion: 2
        time: 0
        value: 1
        inSlope: 0
        outSlope: 0
        tangentMode: 0
      - serializedVersion: 2
        time: 4.9583335
        value: 1
        inSlope: 0
        outSlope: 0
        tangentMode: 0
      m_PreInfinity: 2
      m_PostInfinity: 2
      m_RotationOrder: 4
    attribute: m_LocalRotation.w
    path: arm/roboticArm:robotic_arm/roboticArm:upper_body/roboticArm:pCube3
    classID: 4
    script: {fileID: 0}
  - curve:
      serializedVersion: 2
      m_Curve:
      - serializedVersion: 2
        time: 0
        value: -0.45439142
        inSlope: 0
        outSlope: 0
        tangentMode: 0
      - serializedVersion: 2
        time: 4.9583335
        value: -0.45439142
        inSlope: 0
        outSlope: 0
        tangentMode: 0
      m_PreInfinity: 2
      m_PostInfinity: 2
      m_RotationOrder: 4
    attribute: m_LocalPosition.x
    path: roboticArm:joint1
    classID: 4
    script: {fileID: 0}
  - curve:
      serializedVersion: 2
      m_Curve:
      - serializedVersion: 2
        time: 0
        value: 2.3291352
        inSlope: 0
        outSlope: 0
        tangentMode: 0
      - serializedVersion: 2
        time: 4.9583335
        value: 2.3291352
        inSlope: 0
        outSlope: 0
        tangentMode: 0
      m_PreInfinity: 2
      m_PostInfinity: 2
      m_RotationOrder: 4
    attribute: m_LocalPosition.y
    path: roboticArm:joint1
    classID: 4
    script: {fileID: 0}
  - curve:
      serializedVersion: 2
      m_Curve:
      - serializedVersion: 2
        time: 0
        value: 3.5527136e-17
        inSlope: 0
        outSlope: 0
        tangentMode: 0
      - serializedVersion: 2
        time: 4.9583335
        value: 3.5527136e-17
        inSlope: 0
        outSlope: 0
        tangentMode: 0
      m_PreInfinity: 2
      m_PostInfinity: 2
      m_RotationOrder: 4
    attribute: m_LocalPosition.z
    path: roboticArm:joint1
    classID: 4
    script: {fileID: 0}
  - curve:
      serializedVersion: 2
      m_Curve:
      - serializedVersion: 2
        time: 2.875
        value: -2.4048924
        inSlope: 0
        outSlope: 0
        tangentMode: 0
      - serializedVersion: 2
        time: 4.9583335
        value: -2.4048924
        inSlope: 0
        outSlope: 0
        tangentMode: 0
      m_PreInfinity: 2
      m_PostInfinity: 2
      m_RotationOrder: 4
    attribute: m_LocalPosition.x
    path: roboticArm:joint1/roboticArm:joint2/roboticArm:joint3
    classID: 4
    script: {fileID: 0}
  - curve:
      serializedVersion: 2
      m_Curve:
      - serializedVersion: 2
        time: 2.875
        value: 0.0011447147
        inSlope: 0
        outSlope: 0
        tangentMode: 0
      - serializedVersion: 2
        time: 4.9583335
        value: 0.0011447147
        inSlope: 0
        outSlope: 0
        tangentMode: 0
      m_PreInfinity: 2
      m_PostInfinity: 2
      m_RotationOrder: 4
    attribute: m_LocalPosition.y
    path: roboticArm:joint1/roboticArm:joint2/roboticArm:joint3
    classID: 4
    script: {fileID: 0}
  - curve:
      serializedVersion: 2
      m_Curve:
      - serializedVersion: 2
        time: 2.875
        value: -0.12393221
        inSlope: 0
        outSlope: 0
        tangentMode: 0
      - serializedVersion: 2
        time: 4.9583335
        value: -0.12393221
        inSlope: 0
        outSlope: 0
        tangentMode: 0
      m_PreInfinity: 2
      m_PostInfinity: 2
      m_RotationOrder: 4
    attribute: m_LocalPosition.z
    path: roboticArm:joint1/roboticArm:joint2/roboticArm:joint3
    classID: 4
    script: {fileID: 0}
  - curve:
      serializedVersion: 2
      m_Curve:
      - serializedVersion: 2
        time: 0
        value: -1.8432195
        inSlope: -0.0000043669042
        outSlope: -0.0000043669042
        tangentMode: 0
      - serializedVersion: 2
        time: 1.4166667
        value: -0.85213614
        inSlope: -0.0000025358522
        outSlope: 0.000002192233
        tangentMode: 0
      - serializedVersion: 2
        time: 2.875
        value: -2.6480806
        inSlope: 0.000044306405
        outSlope: 0.000020212592
        tangentMode: 0
      - serializedVersion: 2
        time: 4.3333335
        value: -0.3090352
        inSlope: -0.0000045066245
        outSlope: -0.000007464657
        tangentMode: 0
      - serializedVersion: 2
        time: 4.9583335
        value: -0.9981684
        inSlope: -1.7641768
        outSlope: -1.7641768
        tangentMode: 0
      m_PreInfinity: 2
      m_PostInfinity: 2
      m_RotationOrder: 4
    attribute: m_LocalPosition.x
    path: roboticArm:ikHandle1
    classID: 4
    script: {fileID: 0}
  - curve:
      serializedVersion: 2
      m_Curve:
      - serializedVersion: 2
        time: 0
        value: 5.1558995
        inSlope: 0.000034181234
        outSlope: 0.000034181234
        tangentMode: 0
      - serializedVersion: 2
        time: 1.4166667
        value: 4.892447
        inSlope: -0.11150085
        outSlope: -0.11158979
        tangentMode: 0
      - serializedVersion: 2
        time: 2.875
        value: 4.8351655
        inSlope: -0.000048130467
        outSlope: 0.000012190922
        tangentMode: 0
      - serializedVersion: 2
        time: 4.3333335
        value: 7.163102
        inSlope: -0.00008232667
        outSlope: -0.000014648325
        tangentMode: 0
      - serializedVersion: 2
        time: 4.9583335
        value: 7.160981
        inSlope: -0.010174777
        outSlope: -0.010174777
        tangentMode: 0
      m_PreInfinity: 2
      m_PostInfinity: 2
      m_RotationOrder: 4
    attribute: m_LocalPosition.y
    path: roboticArm:ikHandle1
    classID: 4
    script: {fileID: 0}
  - curve:
      serializedVersion: 2
      m_Curve:
      - serializedVersion: 2
        time: 0
        value: -0.09999246
        inSlope: -8.881784e-16
        outSlope: -8.881784e-16
        tangentMode: 0
      - serializedVersion: 2
        time: 1.4166667
        value: -0.09999248
        inSlope: -3.8064827e-16
        outSlope: -8.881793e-16
        tangentMode: 0
      - serializedVersion: 2
        time: 2.875
        value: -0.09999259
        inSlope: -0
        outSlope: -0
        tangentMode: 0
      - serializedVersion: 2
        time: 4.3333335
        value: -0.09999255
        inSlope: -3.8064938e-16
        outSlope: -8.8817164e-16
        tangentMode: 0
      - serializedVersion: 2
        time: 4.9583335
        value: -0.09999254
        inSlope: 0.000000020435875
        outSlope: 0.000000020435875
        tangentMode: 0
      m_PreInfinity: 2
      m_PostInfinity: 2
      m_RotationOrder: 4
    attribute: m_LocalPosition.z
    path: roboticArm:ikHandle1
    classID: 4
    script: {fileID: 0}
  - curve:
      serializedVersion: 2
      m_Curve:
      - serializedVersion: 2
        time: 0
        value: -0
        inSlope: 0
        outSlope: 0
        tangentMode: 0
      - serializedVersion: 2
        time: 4.9583335
        value: 0
        inSlope: 0
        outSlope: 0
        tangentMode: 0
      m_PreInfinity: 2
      m_PostInfinity: 2
      m_RotationOrder: 4
    attribute: m_LocalPosition.x
    path: arm/roboticArm:robotic_arm/roboticArm:upper_body
    classID: 4
    script: {fileID: 0}
  - curve:
      serializedVersion: 2
      m_Curve:
      - serializedVersion: 2
        time: 0
        value: -7.105427e-17
        inSlope: 0
        outSlope: 0
        tangentMode: 0
      - serializedVersion: 2
        time: 4.9583335
        value: -7.105427e-17
        inSlope: 0
        outSlope: 0
        tangentMode: 0
      m_PreInfinity: 2
      m_PostInfinity: 2
      m_RotationOrder: 4
    attribute: m_LocalPosition.y
    path: arm/roboticArm:robotic_arm/roboticArm:upper_body
    classID: 4
    script: {fileID: 0}
  - curve:
      serializedVersion: 2
      m_Curve:
      - serializedVersion: 2
        time: 0
        value: 0
        inSlope: 0
        outSlope: 0
        tangentMode: 0
      - serializedVersion: 2
        time: 4.9583335
        value: 0
        inSlope: 0
        outSlope: 0
        tangentMode: 0
      m_PreInfinity: 2
      m_PostInfinity: 2
      m_RotationOrder: 4
    attribute: m_LocalPosition.z
    path: arm/roboticArm:robotic_arm/roboticArm:upper_body
    classID: 4
    script: {fileID: 0}
  - curve:
      serializedVersion: 2
      m_Curve:
      - serializedVersion: 2
        time: 0
        value: -0.46419558
        inSlope: 0
        outSlope: 0
        tangentMode: 0
      - serializedVersion: 2
        time: 4.9583335
        value: -0.46419558
        inSlope: 0
        outSlope: 0
        tangentMode: 0
      m_PreInfinity: 2
      m_PostInfinity: 2
      m_RotationOrder: 4
    attribute: m_LocalPosition.x
    path: arm/roboticArm:robotic_arm/roboticArm:upper_body/roboticArm:pCylinder2 1
    classID: 4
    script: {fileID: 0}
  - curve:
      serializedVersion: 2
      m_Curve:
      - serializedVersion: 2
        time: 0
        value: 2.7795415
        inSlope: 0
        outSlope: 0
        tangentMode: 0
      - serializedVersion: 2
        time: 4.9583335
        value: 2.7795415
        inSlope: 0
        outSlope: 0
        tangentMode: 0
      m_PreInfinity: 2
      m_PostInfinity: 2
      m_RotationOrder: 4
    attribute: m_LocalPosition.y
    path: arm/roboticArm:robotic_arm/roboticArm:upper_body/roboticArm:pCylinder2 1
    classID: 4
    script: {fileID: 0}
  - curve:
      serializedVersion: 2
      m_Curve:
      - serializedVersion: 2
        time: 0
        value: -0.40995026
        inSlope: 0
        outSlope: 0
        tangentMode: 0
      - serializedVersion: 2
        time: 4.9583335
        value: -0.40995026
        inSlope: 0
        outSlope: 0
        tangentMode: 0
      m_PreInfinity: 2
      m_PostInfinity: 2
      m_RotationOrder: 4
    attribute: m_LocalPosition.z
    path: arm/roboticArm:robotic_arm/roboticArm:upper_body/roboticArm:pCylinder2 1
    classID: 4
    script: {fileID: 0}
  - curve:
      serializedVersion: 2
      m_Curve:
      - serializedVersion: 2
        time: 0
        value: -3.114403
        inSlope: 0
        outSlope: 0
        tangentMode: 0
      - serializedVersion: 2
        time: 4.9583335
        value: -3.114403
        inSlope: 0
        outSlope: 0
        tangentMode: 0
      m_PreInfinity: 2
      m_PostInfinity: 2
      m_RotationOrder: 4
    attribute: m_LocalPosition.x
    path: arm/roboticArm:robotic_arm/roboticArm:upper_body/roboticArm:pCube3
    classID: 4
    script: {fileID: 0}
  - curve:
      serializedVersion: 2
      m_Curve:
      - serializedVersion: 2
        time: 0
        value: 5.6768036
        inSlope: 0
        outSlope: 0
        tangentMode: 0
      - serializedVersion: 2
        time: 4.9583335
        value: 5.6768036
        inSlope: 0
        outSlope: 0
        tangentMode: 0
      m_PreInfinity: 2
      m_PostInfinity: 2
      m_RotationOrder: 4
    attribute: m_LocalPosition.y
    path: arm/roboticArm:robotic_arm/roboticArm:upper_body/roboticArm:pCube3
    classID: 4
    script: {fileID: 0}
  - curve:
      serializedVersion: 2
      m_Curve:
      - serializedVersion: 2
        time: 0
        value: -0.0892111
        inSlope: 0
        outSlope: 0
        tangentMode: 0
      - serializedVersion: 2
        time: 4.9583335
        value: -0.0892111
        inSlope: 0
        outSlope: 0
        tangentMode: 0
      m_PreInfinity: 2
      m_PostInfinity: 2
      m_RotationOrder: 4
    attribute: m_LocalPosition.z
    path: arm/roboticArm:robotic_arm/roboticArm:upper_body/roboticArm:pCube3
    classID: 4
    script: {fileID: 0}
  - curve:
      serializedVersion: 2
      m_Curve:
      - serializedVersion: 2
        time: 0
        value: 1
        inSlope: 0
        outSlope: 0
        tangentMode: 0
      - serializedVersion: 2
        time: 4.9583335
        value: 1
        inSlope: 0
        outSlope: 0
        tangentMode: 0
      m_PreInfinity: 2
      m_PostInfinity: 2
      m_RotationOrder: 4
    attribute: m_LocalScale.x
    path: roboticArm:joint1
    classID: 4
    script: {fileID: 0}
  - curve:
      serializedVersion: 2
      m_Curve:
      - serializedVersion: 2
        time: 0
        value: 1
        inSlope: 0
        outSlope: 0
        tangentMode: 0
      - serializedVersion: 2
        time: 4.9583335
        value: 1
        inSlope: 0
        outSlope: 0
        tangentMode: 0
      m_PreInfinity: 2
      m_PostInfinity: 2
      m_RotationOrder: 4
    attribute: m_LocalScale.y
    path: roboticArm:joint1
    classID: 4
    script: {fileID: 0}
  - curve:
      serializedVersion: 2
      m_Curve:
      - serializedVersion: 2
        time: 0
        value: 1
        inSlope: 0
        outSlope: 0
        tangentMode: 0
      - serializedVersion: 2
        time: 4.9583335
        value: 1
        inSlope: 0
        outSlope: 0
        tangentMode: 0
      m_PreInfinity: 2
      m_PostInfinity: 2
      m_RotationOrder: 4
    attribute: m_LocalScale.z
    path: roboticArm:joint1
    classID: 4
    script: {fileID: 0}
  - curve:
      serializedVersion: 2
      m_Curve:
      - serializedVersion: 2
        time: 0
        value: 1
        inSlope: 0
        outSlope: 0
        tangentMode: 0
      - serializedVersion: 2
        time: 4.9583335
        value: 1
        inSlope: 0
        outSlope: 0
        tangentMode: 0
      m_PreInfinity: 2
      m_PostInfinity: 2
      m_RotationOrder: 4
    attribute: m_LocalScale.x
    path: roboticArm:joint1/roboticArm:joint2
    classID: 4
    script: {fileID: 0}
  - curve:
      serializedVersion: 2
      m_Curve:
      - serializedVersion: 2
        time: 0
        value: 1
        inSlope: 0
        outSlope: 0
        tangentMode: 0
      - serializedVersion: 2
        time: 4.9583335
        value: 1
        inSlope: 0
        outSlope: 0
        tangentMode: 0
      m_PreInfinity: 2
      m_PostInfinity: 2
      m_RotationOrder: 4
    attribute: m_LocalScale.y
    path: roboticArm:joint1/roboticArm:joint2
    classID: 4
    script: {fileID: 0}
  - curve:
      serializedVersion: 2
      m_Curve:
      - serializedVersion: 2
        time: 0
        value: 1
        inSlope: 0
        outSlope: 0
        tangentMode: 0
      - serializedVersion: 2
        time: 4.9583335
        value: 1
        inSlope: 0
        outSlope: 0
        tangentMode: 0
      m_PreInfinity: 2
      m_PostInfinity: 2
      m_RotationOrder: 4
    attribute: m_LocalScale.z
    path: roboticArm:joint1/roboticArm:joint2
    classID: 4
    script: {fileID: 0}
  - curve:
      serializedVersion: 2
      m_Curve:
      - serializedVersion: 2
        time: 0
        value: 1
        inSlope: 0
        outSlope: 0
        tangentMode: 0
      - serializedVersion: 2
        time: 4.9583335
        value: 1
        inSlope: 0
        outSlope: 0
        tangentMode: 0
      m_PreInfinity: 2
      m_PostInfinity: 2
      m_RotationOrder: 4
    attribute: m_LocalScale.x
    path: roboticArm:joint1/roboticArm:joint2/roboticArm:joint3
    classID: 4
    script: {fileID: 0}
  - curve:
      serializedVersion: 2
      m_Curve:
      - serializedVersion: 2
        time: 0
        value: 1
        inSlope: 0
        outSlope: 0
        tangentMode: 0
      - serializedVersion: 2
        time: 4.9583335
        value: 1
        inSlope: 0
        outSlope: 0
        tangentMode: 0
      m_PreInfinity: 2
      m_PostInfinity: 2
      m_RotationOrder: 4
    attribute: m_LocalScale.y
    path: roboticArm:joint1/roboticArm:joint2/roboticArm:joint3
    classID: 4
    script: {fileID: 0}
  - curve:
      serializedVersion: 2
      m_Curve:
      - serializedVersion: 2
        time: 0
        value: 1
        inSlope: 0
        outSlope: 0
        tangentMode: 0
      - serializedVersion: 2
        time: 4.9583335
        value: 1
        inSlope: 0
        outSlope: 0
        tangentMode: 0
      m_PreInfinity: 2
      m_PostInfinity: 2
      m_RotationOrder: 4
    attribute: m_LocalScale.z
    path: roboticArm:joint1/roboticArm:joint2/roboticArm:joint3
    classID: 4
    script: {fileID: 0}
  - curve:
      serializedVersion: 2
      m_Curve:
      - serializedVersion: 2
        time: 0
        value: 1
        inSlope: 0
        outSlope: 0
        tangentMode: 0
      - serializedVersion: 2
        time: 4.9583335
        value: 1
        inSlope: 0
        outSlope: 0
        tangentMode: 0
      m_PreInfinity: 2
      m_PostInfinity: 2
      m_RotationOrder: 4
    attribute: m_LocalScale.x
    path: roboticArm:ikHandle1
    classID: 4
    script: {fileID: 0}
  - curve:
      serializedVersion: 2
      m_Curve:
      - serializedVersion: 2
        time: 0
        value: 1
        inSlope: 0
        outSlope: 0
        tangentMode: 0
      - serializedVersion: 2
        time: 4.9583335
        value: 1
        inSlope: 0
        outSlope: 0
        tangentMode: 0
      m_PreInfinity: 2
      m_PostInfinity: 2
      m_RotationOrder: 4
    attribute: m_LocalScale.y
    path: roboticArm:ikHandle1
    classID: 4
    script: {fileID: 0}
  - curve:
      serializedVersion: 2
      m_Curve:
      - serializedVersion: 2
        time: 0
        value: 1
        inSlope: 0
        outSlope: 0
        tangentMode: 0
      - serializedVersion: 2
        time: 4.9583335
        value: 1
        inSlope: 0
        outSlope: 0
        tangentMode: 0
      m_PreInfinity: 2
      m_PostInfinity: 2
      m_RotationOrder: 4
    attribute: m_LocalScale.z
    path: roboticArm:ikHandle1
    classID: 4
    script: {fileID: 0}
  m_EulerEditorCurves:
  - curve:
      serializedVersion: 2
      m_Curve:
      - serializedVersion: 2
        time: 0
        value: 0.393599
        inSlope: 0.015293686
        outSlope: 0.015293686
        tangentMode: 0
      - serializedVersion: 2
        time: 1.0000001
        value: 0.5489164
        inSlope: 0.069589905
        outSlope: 0.0787277
        tangentMode: 0
      - serializedVersion: 2
        time: 1.7083334
        value: 0.54784346
        inSlope: -0.28386533
        outSlope: -0.2799776
        tangentMode: 0
      - serializedVersion: 2
        time: 2.375
        value: 0.07597112
        inSlope: -0.92407686
        outSlope: -0.92633134
        tangentMode: 0
      - serializedVersion: 2
        time: 3.0833333
        value: -0.014607025
        inSlope: 0.79769063
        outSlope: 0.80484927
        tangentMode: 0
      - serializedVersion: 2
        time: 3.6666667
        value: 0.33000842
        inSlope: -0.8680321
        outSlope: -0.8876581
        tangentMode: 0
      - serializedVersion: 2
        time: 4.3750005
        value: -0.33844417
        inSlope: 0.03678979
        outSlope: 0.036825985
        tangentMode: 0
      - serializedVersion: 2
        time: 4.9583335
        value: -0.30014554
        inSlope: -0.0667547
        outSlope: -0.0667547
        tangentMode: 0
      m_PreInfinity: 2
      m_PostInfinity: 2
      m_RotationOrder: 4
    attribute: localEulerAngles.x
    path: roboticArm:joint1
    classID: 4
    script: {fileID: 0}
  - curve:
      serializedVersion: 2
      m_Curve:
      - serializedVersion: 2
        time: 0
        value: 0.16721912
        inSlope: -0.021463258
        outSlope: -0.021463258
        tangentMode: 0
      - serializedVersion: 2
        time: 1.0000001
        value: -0.20153251
        inSlope: -0.54232925
        outSlope: -0.5415204
        tangentMode: 0
      - serializedVersion: 2
        time: 1.7083334
        value: -0.11229559
        inSlope: 1.2247434
        outSlope: 1.225896
        tangentMode: 0
      - serializedVersion: 2
        time: 2.375
        value: 0.67447674
        inSlope: 0.6054492
        outSlope: 0.60150105
        tangentMode: 0
      - serializedVersion: 2
        time: 3.0833333
        value: 0.6740703
        inSlope: -0.71804523
        outSlope: -0.7107266
        tangentMode: 0
      - serializedVersion: 2
        time: 3.6666667
        value: -0.12546533
        inSlope: -2.7651408
        outSlope: -2.7580519
        tangentMode: 0
      - serializedVersion: 2
        time: 4.3750005
        value: -0.75755805
        inSlope: 0.05863621
        outSlope: 0.05856691
        tangentMode: 0
      - serializedVersion: 2
        time: 4.9583335
        value: -0.5002329
        inSlope: 0.752349
        outSlope: 0.752349
        tangentMode: 0
      m_PreInfinity: 2
      m_PostInfinity: 2
      m_RotationOrder: 4
    attribute: localEulerAngles.y
    path: roboticArm:joint1
    classID: 4
    script: {fileID: 0}
  - curve:
      serializedVersion: 2
      m_Curve:
      - serializedVersion: 2
        time: 0
        value: -109.79553
        inSlope: -1.2270812
        outSlope: -1.2270812
        tangentMode: 0
      - serializedVersion: 2
        time: 1.0000001
        value: -126.59121
        inSlope: -19.780905
        outSlope: -19.79184
        tangentMode: 0
      - serializedVersion: 2
        time: 1.7083334
        value: -127.23136
        inSlope: 26.865711
        outSlope: 26.868853
        tangentMode: 0
      - serializedVersion: 2
        time: 2.375
        value: -102.79326
        inSlope: 33.887333
        outSlope: 33.880936
        tangentMode: 0
      - serializedVersion: 2
        time: 3.0833333
        value: -96.05554
        inSlope: -26.178484
        outSlope: -26.18622
        tangentMode: 0
      - serializedVersion: 2
        time: 3.6666667
        value: -114.94462
        inSlope: -19.82561
        outSlope: -19.821005
        tangentMode: 0
      - serializedVersion: 2
        time: 4.3750005
        value: -115.24119
        inSlope: 2.2265396
        outSlope: 2.2265375
        tangentMode: 0
      - serializedVersion: 2
        time: 4.9583335
        value: -106.27577
        inSlope: 24.268028
        outSlope: 24.268028
        tangentMode: 0
      m_PreInfinity: 2
      m_PostInfinity: 2
      m_RotationOrder: 4
    attribute: localEulerAngles.z
    path: roboticArm:joint1
    classID: 4
    script: {fileID: 0}
  - curve:
      serializedVersion: 2
      m_Curve:
      - serializedVersion: 2
        time: 0
        value: 0.32091108
        inSlope: 0.033617042
        outSlope: 0.033617042
        tangentMode: 0
      - serializedVersion: 2
        time: 1.1666667
        value: 0.8700186
        inSlope: 0.40686533
        outSlope: 0.4064714
        tangentMode: 0
      - serializedVersion: 2
        time: 2.25
        value: 0.5479803
        inSlope: -0.90901047
        outSlope: -0.93592775
        tangentMode: 0
      - serializedVersion: 2
        time: 2.9166667
        value: 0.17916276
        inSlope: -0.017345374
        outSlope: -0.017403102
        tangentMode: 0
      - serializedVersion: 2
        time: 3.5416667
        value: 0.010525742
        inSlope: -0.08582629
        outSlope: -0.13431422
        tangentMode: 0
      - serializedVersion: 2
        time: 4.0000005
        value: -0.22849774
        inSlope: 1.3053572
        outSlope: 1.2169881
        tangentMode: 0
      - serializedVersion: 2
        time: 4.3333335
        value: 0.16325769
        inSlope: 0.14017801
        outSlope: 0.14067951
        tangentMode: 0
      - serializedVersion: 2
        time: 4.9583335
        value: 0.22713244
        inSlope: 0.36310902
        outSlope: 0.36310902
        tangentMode: 0
      m_PreInfinity: 2
      m_PostInfinity: 2
      m_RotationOrder: 4
    attribute: localEulerAngles.x
    path: roboticArm:joint1/roboticArm:joint2
    classID: 4
    script: {fileID: 0}
  - curve:
      serializedVersion: 2
      m_Curve:
      - serializedVersion: 2
        time: 0
        value: -0.9286394
        inSlope: -0.04354068
        outSlope: -0.04354068
        tangentMode: 0
      - serializedVersion: 2
        time: 1.1666667
        value: -1.3965672
        inSlope: -0.21146995
        outSlope: -0.21222927
        tangentMode: 0
      - serializedVersion: 2
        time: 2.25
        value: -1.1708208
        inSlope: 0.9234818
        outSlope: 0.8992936
        tangentMode: 0
      - serializedVersion: 2
        time: 2.9166667
        value: -0.7087977
        inSlope: 0.032736894
        outSlope: 0.032722093
        tangentMode: 0
      - serializedVersion: 2
        time: 3.5416667
        value: -0.17603496
        inSlope: 2.2696016
        outSlope: 2.2706351
        tangentMode: 0
      - serializedVersion: 2
        time: 4.0000005
        value: 1.4340734
        inSlope: 3.9432456
        outSlope: 3.9787798
        tangentMode: 0
      - serializedVersion: 2
        time: 4.3333335
        value: 2.2504978
        inSlope: 0.18530864
        outSlope: 0.18489075
        tangentMode: 0
      - serializedVersion: 2
        time: 4.9583335
        value: 2.3334785
        inSlope: 0.41514817
        outSlope: 0.41514817
        tangentMode: 0
      m_PreInfinity: 2
      m_PostInfinity: 2
      m_RotationOrder: 4
    attribute: localEulerAngles.y
    path: roboticArm:joint1/roboticArm:joint2
    classID: 4
    script: {fileID: 0}
  - curve:
      serializedVersion: 2
      m_Curve:
      - serializedVersion: 2
        time: 0
        value: 109.7165
        inSlope: 1.0124489
        outSlope: 1.0124489
        tangentMode: 0
      - serializedVersion: 2
        time: 1.1666667
        value: 122.570076
        inSlope: 7.767314
        outSlope: 7.767567
        tangentMode: 0
      - serializedVersion: 2
        time: 2.25
        value: 115.732124
        inSlope: -23.0441
        outSlope: -23.068438
        tangentMode: 0
      - serializedVersion: 2
        time: 2.9166667
        value: 104.83925
        inSlope: -0.6979751
        outSlope: -0.69821775
        tangentMode: 0
      - serializedVersion: 2
        time: 3.5416667
        value: 94.07626
        inSlope: -44.047558
        outSlope: -44.090492
        tangentMode: 0
      - serializedVersion: 2
        time: 4.0000005
        value: 66.81567
        inSlope: -63.06681
        outSlope: -63.139793
        tangentMode: 0
      - serializedVersion: 2
        time: 4.3333335
        value: 53.612415
        inSlope: -3.205848
        outSlope: -3.2057557
        tangentMode: 0
      - serializedVersion: 2
        time: 4.9583335
        value: 52.166866
        inSlope: -7.431647
        outSlope: -7.431647
        tangentMode: 0
      m_PreInfinity: 2
      m_PostInfinity: 2
      m_RotationOrder: 4
    attribute: localEulerAngles.z
    path: roboticArm:joint1/roboticArm:joint2
    classID: 4
    script: {fileID: 0}
  - curve:
      serializedVersion: 2
      m_Curve:
      - serializedVersion: 2
        time: 0
        value: -0
        inSlope: 0
        outSlope: 0
        tangentMode: 0
      - serializedVersion: 2
        time: 2.0833333
        value: -0
        inSlope: 0
        outSlope: 0
        tangentMode: 0
      - serializedVersion: 2
        time: 2.875
        value: 0.00000020813778
        inSlope: 2.619371
        outSlope: 2.6193395
        tangentMode: 0
      - serializedVersion: 2
        time: 3.3333333
        value: 23.872347
        inSlope: 97.46461
        outSlope: 97.362015
        tangentMode: 0
      - serializedVersion: 2
        time: 3.8333333
        value: 88.61604
        inSlope: -158.40125
        outSlope: -159.07777
        tangentMode: 0
      - serializedVersion: 2
        time: 4.2083335
        value: 23.083218
        inSlope: -181.17978
        outSlope: -181.17976
        tangentMode: 0
      - serializedVersion: 2
        time: 4.5833335
        value: -45.825092
        inSlope: -177.18745
        outSlope: -177.18745
        tangentMode: 0
      - serializedVersion: 2
        time: 4.9583335
        value: -71.35412
        inSlope: 149.8822
        outSlope: 149.8822
        tangentMode: 0
      m_PreInfinity: 2
      m_PostInfinity: 2
      m_RotationOrder: 4
    attribute: localEulerAngles.x
    path: roboticArm:joint1/roboticArm:joint2/roboticArm:joint3
    classID: 4
    script: {fileID: 0}
  - curve:
      serializedVersion: 2
      m_Curve:
      - serializedVersion: 2
        time: 0
        value: -0
        inSlope: 0
        outSlope: 0
        tangentMode: 0
      - serializedVersion: 2
        time: 2.0833333
        value: -0
        inSlope: 0
        outSlope: 0
        tangentMode: 0
      - serializedVersion: 2
        time: 2.875
        value: -0.0000000032521528
        inSlope: -0.040938515
        outSlope: -0.040949028
        tangentMode: 0
      - serializedVersion: 2
        time: 3.3333333
        value: -0.396205
        inSlope: -2.1119032
        outSlope: -2.1460242
        tangentMode: 0
      - serializedVersion: 2
        time: 3.8333333
        value: -139.71198
        inSlope: -231.53183
        outSlope: -303.89972
        tangentMode: 0
      - serializedVersion: 2
        time: 4.2083335
        value: -179.61845
        inSlope: -2.9978008
        outSlope: -2.9978027
        tangentMode: 0
      - serializedVersion: 2
        time: 4.5833335
        value: 179.07855
        inSlope: -10.3359375
        outSlope: -10.3359375
        tangentMode: 0
      - serializedVersion: 2
        time: 4.9583335
        value: 2.65409
        inSlope: -11.858208
        outSlope: -11.858208
        tangentMode: 0
      m_PreInfinity: 2
      m_PostInfinity: 2
      m_RotationOrder: 4
    attribute: localEulerAngles.y
    path: roboticArm:joint1/roboticArm:joint2/roboticArm:joint3
    classID: 4
    script: {fileID: 0}
  - curve:
      serializedVersion: 2
      m_Curve:
      - serializedVersion: 2
        time: 0
        value: -0.8951737
        inSlope: 0.0000023174287
        outSlope: 0.0000023174287
        tangentMode: 0
      - serializedVersion: 2
        time: 2.0833333
        value: -0.8951737
        inSlope: 0.0000023174287
        outSlope: 0.0000060984958
        tangentMode: 0
      - serializedVersion: 2
        time: 2.875
        value: -0.8951737
        inSlope: -0.0002251926
        outSlope: -0.00008934196
        tangentMode: 0
      - serializedVersion: 2
        time: 3.3333333
        value: -0.9789288
        inSlope: -1.1070148
        outSlope: -1.1482472
        tangentMode: 0
      - serializedVersion: 2
        time: 3.8333333
        value: -139.7037
        inSlope: -230.25366
        outSlope: -302.62238
        tangentMode: 0
      - serializedVersion: 2
        time: 4.2083335
        value: -179.0269
        inSlope: -0.62304646
        outSlope: -0.6230469
        tangentMode: 0
      - serializedVersion: 2
        time: 4.5833335
        value: -178.71533
        inSlope: 8.822754
        outSlope: 8.822754
        tangentMode: 0
      - serializedVersion: 2
        time: 4.9583335
        value: -2.800885
        inSlope: 10.610449
        outSlope: 10.610449
        tangentMode: 0
      m_PreInfinity: 2
      m_PostInfinity: 2
      m_RotationOrder: 4
    attribute: localEulerAngles.z
    path: roboticArm:joint1/roboticArm:joint2/roboticArm:joint3
    classID: 4
    script: {fileID: 0}
  - curve:
      serializedVersion: 2
      m_Curve:
      - serializedVersion: 2
        time: 0
        value: -0.5888628
        inSlope: -0.03037381
        outSlope: -0.03037381
        tangentMode: 0
      - serializedVersion: 2
        time: 1.5000001
        value: -1.1277544
        inSlope: 0.034775253
        outSlope: 0.03563762
        tangentMode: 0
      - serializedVersion: 2
        time: 2.5
        value: -1.0271989
        inSlope: 0.17745246
        outSlope: 0.18853387
        tangentMode: 0
      - serializedVersion: 2
        time: 3.0833333
        value: -0.50984603
        inSlope: 2.455309
        outSlope: 2.453638
        tangentMode: 0
      - serializedVersion: 2
        time: 3.5833333
        value: 1.1311522
        inSlope: 2.635603
        outSlope: 2.6356018
        tangentMode: 0
      - serializedVersion: 2
        time: 4.0833335
        value: 1.7000638
        inSlope: -0.50568056
        outSlope: -0.54619503
        tangentMode: 0
      - serializedVersion: 2
        time: 4.7083335
        value: 1.7600001
        inSlope: 0.63351804
        outSlope: 0.63622427
        tangentMode: 0
      - serializedVersion: 2
        time: 4.9583335
        value: 1.9220717
        inSlope: 0.6350298
        outSlope: 0.6350298
        tangentMode: 0
      m_PreInfinity: 2
      m_PostInfinity: 2
      m_RotationOrder: 4
    attribute: localEulerAngles.x
    path: roboticArm:ikHandle1
    classID: 4
    script: {fileID: 0}
  - curve:
      serializedVersion: 2
      m_Curve:
      - serializedVersion: 2
        time: 0
        value: 0.17975491
        inSlope: -0.020276425
        outSlope: -0.020276425
        tangentMode: 0
      - serializedVersion: 2
        time: 1.5000001
        value: -0.07822379
        inSlope: 0.14066997
        outSlope: 0.1404636
        tangentMode: 0
      - serializedVersion: 2
        time: 2.5
        value: 0.47658417
        inSlope: 0.59933084
        outSlope: 0.5963678
        tangentMode: 0
      - serializedVersion: 2
        time: 3.0833333
        value: 0.71748376
        inSlope: 0.31161818
        outSlope: 0.33361673
        tangentMode: 0
      - serializedVersion: 2
        time: 3.5833333
        value: 0.24548864
        inSlope: -3.2065744
        outSlope: -3.206573
        tangentMode: 0
      - serializedVersion: 2
        time: 4.0833335
        value: -1.5073682
        inSlope: -2.6555882
        outSlope: -2.644491
        tangentMode: 0
      - serializedVersion: 2
        time: 4.7083335
        value: -1.7751895
        inSlope: 0.48975736
        outSlope: 0.48611212
        tangentMode: 0
      - serializedVersion: 2
        time: 4.9583335
        value: -1.6186222
        inSlope: 0.76685
        outSlope: 0.76685
        tangentMode: 0
      m_PreInfinity: 2
      m_PostInfinity: 2
      m_RotationOrder: 4
    attribute: localEulerAngles.y
    path: roboticArm:ikHandle1
    classID: 4
    script: {fileID: 0}
  - curve:
      serializedVersion: 2
      m_Curve:
      - serializedVersion: 2
        time: 0
        value: -0.07595947
        inSlope: -0.454862
        outSlope: -0.454862
        tangentMode: 0
      - serializedVersion: 2
        time: 1.5000001
        value: -7.3446984
        inSlope: 4.252873
        outSlope: 4.2531357
        tangentMode: 0
      - serializedVersion: 2
        time: 2.5
        value: 8.588397
        inSlope: 15.122033
        outSlope: 15.128475
        tangentMode: 0
      - serializedVersion: 2
        time: 3.0833333
        value: 7.688399
        inSlope: -36.86109
        outSlope: -36.87377
        tangentMode: 0
      - serializedVersion: 2
        time: 3.5833333
        value: -23.379185
        inSlope: -75.10032
        outSlope: -75.10037
        tangentMode: 0
      - serializedVersion: 2
        time: 4.0833335
        value: -55.95268
        inSlope: -42.80402
        outSlope: -42.771477
        tangentMode: 0
      - serializedVersion: 2
        time: 4.7083335
        value: -60.690994
        inSlope: 5.216089
        outSlope: 5.2157593
        tangentMode: 0
      - serializedVersion: 2
        time: 4.9583335
        value: -59.024086
        inSlope: 8.117065
        outSlope: 8.117065
        tangentMode: 0
      m_PreInfinity: 2
      m_PostInfinity: 2
      m_RotationOrder: 4
    attribute: localEulerAngles.z
    path: roboticArm:ikHandle1
    classID: 4
    script: {fileID: 0}
  - curve:
      serializedVersion: 2
      m_Curve:
      - serializedVersion: 2
        time: 0
        value: -0
        inSlope: 0
        outSlope: 0
        tangentMode: 0
      - serializedVersion: 2
        time: 4.9583335
        value: 0
        inSlope: 0
        outSlope: 0
        tangentMode: 0
      m_PreInfinity: 2
      m_PostInfinity: 2
      m_RotationOrder: 4
    attribute: localEulerAngles.x
    path: arm/roboticArm:robotic_arm/roboticArm:upper_body
    classID: 4
    script: {fileID: 0}
  - curve:
      serializedVersion: 2
      m_Curve:
      - serializedVersion: 2
        time: 0
        value: -3.1805545e-15
        inSlope: 1.924369e-15
        outSlope: 1.924369e-15
        tangentMode: 0
      - serializedVersion: 2
        time: 4.9583335
        value: -3.1805545e-15
        inSlope: 1.924369e-15
        outSlope: 1.924369e-15
        tangentMode: 0
      m_PreInfinity: 2
      m_PostInfinity: 2
      m_RotationOrder: 4
    attribute: localEulerAngles.y
    path: arm/roboticArm:robotic_arm/roboticArm:upper_body
    classID: 4
    script: {fileID: 0}
  - curve:
      serializedVersion: 2
      m_Curve:
      - serializedVersion: 2
        time: 0
        value: -0
        inSlope: 0
        outSlope: 0
        tangentMode: 0
      - serializedVersion: 2
        time: 4.9583335
        value: 0
        inSlope: 0
        outSlope: 0
        tangentMode: 0
      m_PreInfinity: 2
      m_PostInfinity: 2
      m_RotationOrder: 4
    attribute: localEulerAngles.z
    path: arm/roboticArm:robotic_arm/roboticArm:upper_body
    classID: 4
    script: {fileID: 0}
  - curve:
      serializedVersion: 2
      m_Curve:
      - serializedVersion: 2
        time: 0
        value: -0
        inSlope: 0
        outSlope: 0
        tangentMode: 0
      - serializedVersion: 2
        time: 4.9583335
        value: -0
        inSlope: 0
        outSlope: 0
        tangentMode: 0
      m_PreInfinity: 2
      m_PostInfinity: 2
      m_RotationOrder: 4
    attribute: localEulerAngles.x
    path: arm/roboticArm:robotic_arm/roboticArm:upper_body/roboticArm:pCylinder2 1
    classID: 4
    script: {fileID: 0}
  - curve:
      serializedVersion: 2
      m_Curve:
      - serializedVersion: 2
        time: 0
        value: -90
        inSlope: 0
        outSlope: 0
        tangentMode: 0
      - serializedVersion: 2
        time: 4.9583335
        value: -90
        inSlope: 0
        outSlope: 0
        tangentMode: 0
      m_PreInfinity: 2
      m_PostInfinity: 2
      m_RotationOrder: 4
    attribute: localEulerAngles.y
    path: arm/roboticArm:robotic_arm/roboticArm:upper_body/roboticArm:pCylinder2 1
    classID: 4
    script: {fileID: 0}
  - curve:
      serializedVersion: 2
      m_Curve:
      - serializedVersion: 2
        time: 0
        value: -90
        inSlope: 0
        outSlope: 0
        tangentMode: 0
      - serializedVersion: 2
        time: 4.9583335
        value: -90
        inSlope: 0
        outSlope: 0
        tangentMode: 0
      m_PreInfinity: 2
      m_PostInfinity: 2
      m_RotationOrder: 4
    attribute: localEulerAngles.z
    path: arm/roboticArm:robotic_arm/roboticArm:upper_body/roboticArm:pCylinder2 1
    classID: 4
    script: {fileID: 0}
  - curve:
      serializedVersion: 2
      m_Curve:
      - serializedVersion: 2
        time: 0
        value: -3.1805545e-15
        inSlope: 1.924369e-15
        outSlope: 1.924369e-15
        tangentMode: 0
      - serializedVersion: 2
        time: 4.9583335
        value: -3.1805545e-15
        inSlope: 1.924369e-15
        outSlope: 1.924369e-15
        tangentMode: 0
      m_PreInfinity: 2
      m_PostInfinity: 2
      m_RotationOrder: 4
    attribute: localEulerAngles.x
    path: arm/roboticArm:robotic_arm/roboticArm:upper_body/roboticArm:pCube3
    classID: 4
    script: {fileID: 0}
  - curve:
      serializedVersion: 2
      m_Curve:
      - serializedVersion: 2
        time: 0
        value: -1.5902774e-14
        inSlope: 9.621847e-15
        outSlope: 9.621847e-15
        tangentMode: 0
      - serializedVersion: 2
        time: 4.9583335
        value: -1.5902774e-14
        inSlope: 9.621847e-15
        outSlope: 9.621847e-15
        tangentMode: 0
      m_PreInfinity: 2
      m_PostInfinity: 2
      m_RotationOrder: 4
    attribute: localEulerAngles.y
    path: arm/roboticArm:robotic_arm/roboticArm:upper_body/roboticArm:pCube3
    classID: 4
    script: {fileID: 0}
  - curve:
      serializedVersion: 2
      m_Curve:
      - serializedVersion: 2
        time: 0
        value: 8.9055526e-14
        inSlope: -5.3882334e-14
        outSlope: -5.3882334e-14
        tangentMode: 0
      - serializedVersion: 2
        time: 4.9583335
        value: 8.9055526e-14
        inSlope: -5.3882334e-14
        outSlope: -5.3882334e-14
        tangentMode: 0
      m_PreInfinity: 2
      m_PostInfinity: 2
      m_RotationOrder: 4
    attribute: localEulerAngles.z
    path: arm/roboticArm:robotic_arm/roboticArm:upper_body/roboticArm:pCube3
    classID: 4
    script: {fileID: 0}
  m_HasGenericRootTransform: 0
  m_HasMotionFloatCurves: 0
  m_GenerateMotionCurves: 0
  m_IsEmpty: 0
  m_Events: []
