%YAML 1.1
%TAG !u! tag:unity3d.com,2011:
--- !u!29 &1
OcclusionCullingSettings:
  m_ObjectHideFlags: 0
  serializedVersion: 2
  m_OcclusionBakeSettings:
    smallestOccluder: 5
    smallestHole: 0.25
    backfaceThreshold: 100
  m_SceneGUID: 00000000000000000000000000000000
  m_OcclusionCullingData: {fileID: 0}
--- !u!104 &2
RenderSettings:
  m_ObjectHideFlags: 0
  serializedVersion: 8
  m_Fog: 0
  m_FogColor: {r: 0.5, g: 0.5, b: 0.5, a: 1}
  m_FogMode: 3
  m_FogDensity: 0.01
  m_LinearFogStart: 0
  m_LinearFogEnd: 300
  m_AmbientSkyColor: {r: 0.212, g: 0.227, b: 0.259, a: 1}
  m_AmbientEquatorColor: {r: 0.114, g: 0.125, b: 0.133, a: 1}
  m_AmbientGroundColor: {r: 0.047, g: 0.043, b: 0.035, a: 1}
  m_AmbientIntensity: 1
  m_AmbientMode: 0
  m_SubtractiveShadowColor: {r: 0.42, g: 0.478, b: 0.627, a: 1}
  m_SkyboxMaterial: {fileID: 10304, guid: 0000000000000000f000000000000000, type: 0}
  m_HaloStrength: 0.5
  m_FlareStrength: 1
  m_FlareFadeSpeed: 3
  m_HaloTexture: {fileID: 0}
  m_SpotCookie: {fileID: 10001, guid: 0000000000000000e000000000000000, type: 0}
  m_DefaultReflectionMode: 0
  m_DefaultReflectionResolution: 128
  m_ReflectionBounces: 1
  m_ReflectionIntensity: 1
  m_CustomReflection: {fileID: 0}
  m_Sun: {fileID: 0}
  m_IndirectSpecularColor: {r: 0.44657868, g: 0.49641263, b: 0.57481706, a: 1}
--- !u!157 &3
LightmapSettings:
  m_ObjectHideFlags: 0
  serializedVersion: 9
  m_GIWorkflowMode: 0
  m_GISettings:
    serializedVersion: 2
    m_BounceScale: 1
    m_IndirectOutputScale: 1
    m_AlbedoBoost: 1
    m_TemporalCoherenceThreshold: 1
    m_EnvironmentLightingMode: 0
    m_EnableBakedLightmaps: 1
    m_EnableRealtimeLightmaps: 1
  m_LightmapEditorSettings:
    serializedVersion: 8
    m_Resolution: 2
    m_BakeResolution: 40
    m_TextureWidth: 1024
    m_TextureHeight: 1024
    m_AO: 0
    m_AOMaxDistance: 1
    m_CompAOExponent: 1
    m_CompAOExponentDirect: 0
    m_Padding: 2
    m_LightmapParameters: {fileID: 0}
    m_LightmapsBakeMode: 1
    m_TextureCompression: 1
    m_FinalGather: 0
    m_FinalGatherFiltering: 1
    m_FinalGatherRayCount: 256
    m_ReflectionCompression: 2
    m_MixedBakeMode: 3
    m_BakeBackend: 0
    m_PVRSampling: 1
    m_PVRDirectSampleCount: 32
    m_PVRSampleCount: 500
    m_PVRBounces: 2
    m_PVRFiltering: 0
    m_PVRFilteringMode: 1
    m_PVRCulling: 1
    m_PVRFilteringGaussRadiusDirect: 1
    m_PVRFilteringGaussRadiusIndirect: 5
    m_PVRFilteringGaussRadiusAO: 2
    m_PVRFilteringAtrousColorSigma: 1
    m_PVRFilteringAtrousNormalSigma: 1
    m_PVRFilteringAtrousPositionSigma: 1
  m_LightingDataAsset: {fileID: 0}
  m_ShadowMaskMode: 2
--- !u!196 &4
NavMeshSettings:
  serializedVersion: 2
  m_ObjectHideFlags: 0
  m_BuildSettings:
    serializedVersion: 2
    agentTypeID: 0
    agentRadius: 0.5
    agentHeight: 2
    agentSlope: 45
    agentClimb: 0.4
    ledgeDropHeight: 0
    maxJumpAcrossDistance: 0
    minRegionArea: 2
    manualCellSize: 0
    cellSize: 0.16666667
    manualTileSize: 0
    tileSize: 256
    accuratePlacement: 0
  m_NavMeshData: {fileID: 0}
--- !u!1 &202120087
GameObject:
  m_ObjectHideFlags: 0
  m_PrefabParentObject: {fileID: 0}
  m_PrefabInternal: {fileID: 0}
  serializedVersion: 5
  m_Component:
  - component: {fileID: 202120092}
  - component: {fileID: 202120091}
  - component: {fileID: 202120090}
  - component: {fileID: 202120089}
  - component: {fileID: 202120088}
  m_Layer: 0
  m_Name: Main Camera
  m_TagString: MainCamera
  m_Icon: {fileID: 0}
  m_NavMeshLayer: 0
  m_StaticEditorFlags: 0
  m_IsActive: 1
--- !u!81 &202120088
AudioListener:
  m_ObjectHideFlags: 0
  m_PrefabParentObject: {fileID: 0}
  m_PrefabInternal: {fileID: 0}
  m_GameObject: {fileID: 202120087}
  m_Enabled: 1
--- !u!124 &202120089
Behaviour:
  m_ObjectHideFlags: 0
  m_PrefabParentObject: {fileID: 0}
  m_PrefabInternal: {fileID: 0}
  m_GameObject: {fileID: 202120087}
  m_Enabled: 1
--- !u!92 &202120090
Behaviour:
  m_ObjectHideFlags: 0
  m_PrefabParentObject: {fileID: 0}
  m_PrefabInternal: {fileID: 0}
  m_GameObject: {fileID: 202120087}
  m_Enabled: 1
--- !u!20 &202120091
Camera:
  m_ObjectHideFlags: 0
  m_PrefabParentObject: {fileID: 0}
  m_PrefabInternal: {fileID: 0}
  m_GameObject: {fileID: 202120087}
  m_Enabled: 1
  serializedVersion: 2
  m_ClearFlags: 1
  m_BackGroundColor: {r: 0.19215687, g: 0.3019608, b: 0.4745098, a: 0}
  m_NormalizedViewPortRect:
    serializedVersion: 2
    x: 0
    y: 0
    width: 1
    height: 1
  near clip plane: 0.3
  far clip plane: 1000
  field of view: 60
  orthographic: 0
  orthographic size: 5
  m_Depth: -1
  m_CullingMask:
    serializedVersion: 2
    m_Bits: 4294967295
  m_RenderingPath: -1
  m_TargetTexture: {fileID: 0}
  m_TargetDisplay: 0
  m_TargetEye: 3
  m_HDR: 1
  m_AllowMSAA: 1
  m_ForceIntoRT: 0
  m_OcclusionCulling: 1
  m_StereoConvergence: 10
  m_StereoSeparation: 0.022
  m_StereoMirrorMode: 0
--- !u!4 &202120092
Transform:
  m_ObjectHideFlags: 0
  m_PrefabParentObject: {fileID: 0}
  m_PrefabInternal: {fileID: 0}
  m_GameObject: {fileID: 202120087}
  m_LocalRotation: {x: 0, y: 0, z: 0, w: 1}
  m_LocalPosition: {x: 0, y: 0.45, z: -7.73}
  m_LocalScale: {x: 1, y: 1, z: 1}
  m_Children: []
  m_Father: {fileID: 0}
  m_RootOrder: 0
  m_LocalEulerAnglesHint: {x: 0, y: 0, z: 0}
--- !u!1 &1166511486
GameObject:
  m_ObjectHideFlags: 0
  m_PrefabParentObject: {fileID: 0}
  m_PrefabInternal: {fileID: 0}
  serializedVersion: 5
  m_Component:
  - component: {fileID: 1166511488}
  - component: {fileID: 1166511487}
  m_Layer: 0
  m_Name: Directional Light
  m_TagString: Untagged
  m_Icon: {fileID: 0}
  m_NavMeshLayer: 0
  m_StaticEditorFlags: 0
  m_IsActive: 1
--- !u!108 &1166511487
Light:
  m_ObjectHideFlags: 0
  m_PrefabParentObject: {fileID: 0}
  m_PrefabInternal: {fileID: 0}
  m_GameObject: {fileID: 1166511486}
  m_Enabled: 1
  serializedVersion: 8
  m_Type: 1
  m_Color: {r: 1, g: 0.95686275, b: 0.8392157, a: 1}
  m_Intensity: 1
  m_Range: 10
  m_SpotAngle: 30
  m_CookieSize: 10
  m_Shadows:
    m_Type: 2
    m_Resolution: -1
    m_CustomResolution: -1
    m_Strength: 1
    m_Bias: 0.05
    m_NormalBias: 0.4
    m_NearPlane: 0.2
  m_Cookie: {fileID: 0}
  m_DrawHalo: 0
  m_Flare: {fileID: 0}
  m_RenderMode: 0
  m_CullingMask:
    serializedVersion: 2
    m_Bits: 4294967295
  m_Lightmapping: 4
  m_AreaSize: {x: 1, y: 1}
  m_BounceIntensity: 1
  m_ColorTemperature: 6570
  m_UseColorTemperature: 0
  m_ShadowRadius: 0
  m_ShadowAngle: 0
--- !u!4 &1166511488
Transform:
  m_ObjectHideFlags: 0
  m_PrefabParentObject: {fileID: 0}
  m_PrefabInternal: {fileID: 0}
  m_GameObject: {fileID: 1166511486}
  m_LocalRotation: {x: 0.40821788, y: -0.23456968, z: 0.10938163, w: 0.8754261}
  m_LocalPosition: {x: 0, y: 3, z: 0}
  m_LocalScale: {x: 1, y: 1, z: 1}
  m_Children: []
  m_Father: {fileID: 0}
  m_RootOrder: 2
  m_LocalEulerAnglesHint: {x: 50, y: -30, z: 0}
--- !u!43 &1301826530
Mesh:
  m_ObjectHideFlags: 0
  m_PrefabParentObject: {fileID: 0}
  m_PrefabInternal: {fileID: 0}
  m_Name: 
  serializedVersion: 8
  m_SubMeshes:
  - serializedVersion: 2
    firstByte: 0
    indexCount: 6
    topology: 0
    firstVertex: 0
    vertexCount: 4
    localAABB:
      m_Center: {x: 0, y: 0, z: 0}
      m_Extent: {x: 0.5, y: 0, z: 0.47768593}
  m_Shapes:
    vertices: []
    shapes: []
    channels: []
    fullWeights: []
  m_BindPose: []
  m_BoneNameHashes: 
  m_RootBoneNameHash: 0
  m_MeshCompression: 0
  m_IsReadable: 1
  m_KeepVertices: 1
  m_KeepIndices: 1
  m_IndexBuffer: 000001000200020001000300
  m_Skin: []
  m_VertexData:
    m_CurrentChannels: 11
    m_VertexCount: 4
    m_Channels:
    - stream: 0
      offset: 0
      format: 0
      dimension: 3
    - stream: 0
      offset: 12
      format: 0
      dimension: 3
    - stream: 0
      offset: 0
      format: 0
      dimension: 0
    - stream: 0
      offset: 24
      format: 0
      dimension: 2
    - stream: 0
      offset: 0
      format: 0
      dimension: 0
    - stream: 0
      offset: 0
      format: 0
      dimension: 0
    - stream: 0
      offset: 0
      format: 0
      dimension: 0
    - stream: 0
      offset: 0
      format: 0
      dimension: 0
    m_DataSize: 128
    _typelessdata: 000000bf000000004093f4be000000000000803f000000000000000000000000000000bf000000004093f43e000000000000803f00000000000000000000803f0000003f000000004093f4be000000000000803f000000000000803f000000000000003f000000004093f43e000000000000803f000000000000803f0000803f
  m_CompressedMesh:
    m_Vertices:
      m_NumItems: 0
      m_Range: 0
      m_Start: 0
      m_Data: 
      m_BitSize: 0
    m_UV:
      m_NumItems: 0
      m_Range: 0
      m_Start: 0
      m_Data: 
      m_BitSize: 0
    m_Normals:
      m_NumItems: 0
      m_Range: 0
      m_Start: 0
      m_Data: 
      m_BitSize: 0
    m_Tangents:
      m_NumItems: 0
      m_Range: 0
      m_Start: 0
      m_Data: 
      m_BitSize: 0
    m_Weights:
      m_NumItems: 0
      m_Data: 
      m_BitSize: 0
    m_NormalSigns:
      m_NumItems: 0
      m_Data: 
      m_BitSize: 0
    m_TangentSigns:
      m_NumItems: 0
      m_Data: 
      m_BitSize: 0
    m_FloatColors:
      m_NumItems: 0
      m_Range: 0
      m_Start: 0
      m_Data: 
      m_BitSize: 0
    m_BoneIndices:
      m_NumItems: 0
      m_Data: 
      m_BitSize: 0
    m_Triangles:
      m_NumItems: 0
      m_Data: 
      m_BitSize: 0
    m_UVInfo: 0
  m_LocalAABB:
    m_Center: {x: 0, y: 0, z: 0}
    m_Extent: {x: 0.5, y: 0, z: 0.47768593}
  m_MeshUsageFlags: 0
  m_BakedConvexCollisionMesh: 
  m_BakedTriangleCollisionMesh: 
  m_MeshOptimized: 0
--- !u!21 &1577181690
Material:
  serializedVersion: 6
  m_ObjectHideFlags: 0
  m_PrefabParentObject: {fileID: 0}
  m_PrefabInternal: {fileID: 0}
  m_Name: KineticSphereMaterial
  m_Shader: {fileID: 10752, guid: 0000000000000000f000000000000000, type: 0}
  m_ShaderKeywords: 
  m_LightmapFlags: 5
  m_EnableInstancingVariants: 0
  m_CustomRenderQueue: -1
  stringTagMap: {}
  disabledShaderPasses: []
  m_SavedProperties:
    serializedVersion: 3
    m_TexEnvs:
    - _MainTex:
        m_Texture: {fileID: 0}
        m_Scale: {x: 1, y: 1}
        m_Offset: {x: 0, y: 0}
    m_Floats: []
    m_Colors:
    - _Color: {r: 0.82089555, g: 0.82089555, b: 0.82089555, a: 1}
--- !u!1001 &1952236949
Prefab:
  m_ObjectHideFlags: 0
  serializedVersion: 2
  m_Modification:
    m_TransformParent: {fileID: 0}
    m_Modifications:
    - target: {fileID: 4191934328195646, guid: 44dab108a01da9a418f74bcbc6c3c65c, type: 2}
      propertyPath: m_LocalPosition.x
      value: 0
      objectReference: {fileID: 0}
    - target: {fileID: 4191934328195646, guid: 44dab108a01da9a418f74bcbc6c3c65c, type: 2}
      propertyPath: m_LocalPosition.y
      value: -1.08
      objectReference: {fileID: 0}
    - target: {fileID: 4191934328195646, guid: 44dab108a01da9a418f74bcbc6c3c65c, type: 2}
      propertyPath: m_LocalPosition.z
      value: -6.27
      objectReference: {fileID: 0}
    - target: {fileID: 4191934328195646, guid: 44dab108a01da9a418f74bcbc6c3c65c, type: 2}
      propertyPath: m_LocalRotation.x
      value: 0
      objectReference: {fileID: 0}
    - target: {fileID: 4191934328195646, guid: 44dab108a01da9a418f74bcbc6c3c65c, type: 2}
      propertyPath: m_LocalRotation.y
      value: 0
      objectReference: {fileID: 0}
    - target: {fileID: 4191934328195646, guid: 44dab108a01da9a418f74bcbc6c3c65c, type: 2}
      propertyPath: m_LocalRotation.z
      value: 0
      objectReference: {fileID: 0}
    - target: {fileID: 4191934328195646, guid: 44dab108a01da9a418f74bcbc6c3c65c, type: 2}
      propertyPath: m_LocalRotation.w
      value: 1
      objectReference: {fileID: 0}
    - target: {fileID: 4191934328195646, guid: 44dab108a01da9a418f74bcbc6c3c65c, type: 2}
      propertyPath: m_RootOrder
      value: 1
      objectReference: {fileID: 0}
    - target: {fileID: 23947004039165842, guid: 44dab108a01da9a418f74bcbc6c3c65c,
        type: 2}
      propertyPath: m_Materials.Array.data[0]
      value: 
      objectReference: {fileID: 1577181690}
    - target: {fileID: 33672818356092740, guid: 44dab108a01da9a418f74bcbc6c3c65c,
        type: 2}
      propertyPath: m_Mesh
      value: 
      objectReference: {fileID: 1301826530}
    - target: {fileID: 4191934328195646, guid: 44dab108a01da9a418f74bcbc6c3c65c, type: 2}
      propertyPath: m_LocalScale.x
      value: 1
      objectReference: {fileID: 0}
    - target: {fileID: 4191934328195646, guid: 44dab108a01da9a418f74bcbc6c3c65c, type: 2}
      propertyPath: m_LocalScale.y
      value: 1
      objectReference: {fileID: 0}
    - target: {fileID: 4191934328195646, guid: 44dab108a01da9a418f74bcbc6c3c65c, type: 2}
      propertyPath: m_LocalScale.z
      value: 1
      objectReference: {fileID: 0}
    - target: {fileID: 114847876229922518, guid: 44dab108a01da9a418f74bcbc6c3c65c,
        type: 2}
      propertyPath: speed
      value: 0.5
      objectReference: {fileID: 0}
    - target: {fileID: 4806977601400588, guid: 44dab108a01da9a418f74bcbc6c3c65c, type: 2}
      propertyPath: m_LocalPosition.x
      value: 1.1479
      objectReference: {fileID: 0}
    - target: {fileID: 4806977601400588, guid: 44dab108a01da9a418f74bcbc6c3c65c, type: 2}
      propertyPath: m_LocalPosition.y
      value: 3.6226
      objectReference: {fileID: 0}
    - target: {fileID: 4806977601400588, guid: 44dab108a01da9a418f74bcbc6c3c65c, type: 2}
      propertyPath: m_LocalScale.x
      value: 1.1682768
      objectReference: {fileID: 0}
    - target: {fileID: 4806977601400588, guid: 44dab108a01da9a418f74bcbc6c3c65c, type: 2}
      propertyPath: m_LocalScale.y
      value: 1.168277
      objectReference: {fileID: 0}
    - target: {fileID: 4806977601400588, guid: 44dab108a01da9a418f74bcbc6c3c65c, type: 2}
      propertyPath: m_LocalScale.z
      value: 1.168277
      objectReference: {fileID: 0}
    - target: {fileID: 4468084019955568, guid: 44dab108a01da9a418f74bcbc6c3c65c, type: 2}
      propertyPath: m_LocalPosition.x
      value: 0.89558
      objectReference: {fileID: 0}
    - target: {fileID: 4468084019955568, guid: 44dab108a01da9a418f74bcbc6c3c65c, type: 2}
      propertyPath: m_LocalPosition.y
      value: 4.1579
      objectReference: {fileID: 0}
    - target: {fileID: 4468084019955568, guid: 44dab108a01da9a418f74bcbc6c3c65c, type: 2}
      propertyPath: m_LocalPosition.z
      value: -0.89558
      objectReference: {fileID: 0}
    - target: {fileID: 4468084019955568, guid: 44dab108a01da9a418f74bcbc6c3c65c, type: 2}
      propertyPath: m_LocalScale.x
      value: 1.1682768
      objectReference: {fileID: 0}
    - target: {fileID: 4468084019955568, guid: 44dab108a01da9a418f74bcbc6c3c65c, type: 2}
      propertyPath: m_LocalScale.y
      value: 1.168277
      objectReference: {fileID: 0}
    - target: {fileID: 4468084019955568, guid: 44dab108a01da9a418f74bcbc6c3c65c, type: 2}
      propertyPath: m_LocalScale.z
      value: 1.168277
      objectReference: {fileID: 0}
    - target: {fileID: 4834419771009448, guid: 44dab108a01da9a418f74bcbc6c3c65c, type: 2}
      propertyPath: m_LocalPosition.x
      value: -1.2665
      objectReference: {fileID: 0}
    - target: {fileID: 4834419771009448, guid: 44dab108a01da9a418f74bcbc6c3c65c, type: 2}
      propertyPath: m_LocalPosition.y
      value: 4.1579
      objectReference: {fileID: 0}
    - target: {fileID: 4834419771009448, guid: 44dab108a01da9a418f74bcbc6c3c65c, type: 2}
      propertyPath: m_LocalScale.x
      value: 1.1682768
      objectReference: {fileID: 0}
    - target: {fileID: 4834419771009448, guid: 44dab108a01da9a418f74bcbc6c3c65c, type: 2}
      propertyPath: m_LocalScale.y
      value: 1.168277
      objectReference: {fileID: 0}
    - target: {fileID: 4834419771009448, guid: 44dab108a01da9a418f74bcbc6c3c65c, type: 2}
      propertyPath: m_LocalScale.z
      value: 1.168277
      objectReference: {fileID: 0}
    - target: {fileID: 4102185057037924, guid: 44dab108a01da9a418f74bcbc6c3c65c, type: 2}
      propertyPath: m_LocalPosition.x
      value: -1.1479
      objectReference: {fileID: 0}
    - target: {fileID: 4102185057037924, guid: 44dab108a01da9a418f74bcbc6c3c65c, type: 2}
      propertyPath: m_LocalPosition.y
      value: 3.6226
      objectReference: {fileID: 0}
    - target: {fileID: 4102185057037924, guid: 44dab108a01da9a418f74bcbc6c3c65c, type: 2}
      propertyPath: m_LocalScale.x
      value: 1.1682768
      objectReference: {fileID: 0}
    - target: {fileID: 4102185057037924, guid: 44dab108a01da9a418f74bcbc6c3c65c, type: 2}
      propertyPath: m_LocalScale.y
      value: 1.168277
      objectReference: {fileID: 0}
    - target: {fileID: 4102185057037924, guid: 44dab108a01da9a418f74bcbc6c3c65c, type: 2}
      propertyPath: m_LocalScale.z
      value: 1.168277
      objectReference: {fileID: 0}
    - target: {fileID: 4177163763133426, guid: 44dab108a01da9a418f74bcbc6c3c65c, type: 2}
      propertyPath: m_LocalPosition.x
      value: -0.81164
      objectReference: {fileID: 0}
    - target: {fileID: 4177163763133426, guid: 44dab108a01da9a418f74bcbc6c3c65c, type: 2}
      propertyPath: m_LocalPosition.y
      value: 3.6226
      objectReference: {fileID: 0}
    - target: {fileID: 4177163763133426, guid: 44dab108a01da9a418f74bcbc6c3c65c, type: 2}
      propertyPath: m_LocalPosition.z
      value: -0.81164
      objectReference: {fileID: 0}
    - target: {fileID: 4177163763133426, guid: 44dab108a01da9a418f74bcbc6c3c65c, type: 2}
      propertyPath: m_LocalScale.x
      value: 1.1682768
      objectReference: {fileID: 0}
    - target: {fileID: 4177163763133426, guid: 44dab108a01da9a418f74bcbc6c3c65c, type: 2}
      propertyPath: m_LocalScale.y
      value: 1.168277
      objectReference: {fileID: 0}
    - target: {fileID: 4177163763133426, guid: 44dab108a01da9a418f74bcbc6c3c65c, type: 2}
      propertyPath: m_LocalScale.z
      value: 1.168277
      objectReference: {fileID: 0}
    - target: {fileID: 4815238100440128, guid: 44dab108a01da9a418f74bcbc6c3c65c, type: 2}
      propertyPath: m_LocalPosition.x
      value: -0.81164
      objectReference: {fileID: 0}
    - target: {fileID: 4815238100440128, guid: 44dab108a01da9a418f74bcbc6c3c65c, type: 2}
      propertyPath: m_LocalPosition.y
      value: 4.6932
      objectReference: {fileID: 0}
    - target: {fileID: 4815238100440128, guid: 44dab108a01da9a418f74bcbc6c3c65c, type: 2}
      propertyPath: m_LocalPosition.z
      value: 0.81164
      objectReference: {fileID: 0}
    - target: {fileID: 4815238100440128, guid: 44dab108a01da9a418f74bcbc6c3c65c, type: 2}
      propertyPath: m_LocalScale.x
      value: 1.1682768
      objectReference: {fileID: 0}
    - target: {fileID: 4815238100440128, guid: 44dab108a01da9a418f74bcbc6c3c65c, type: 2}
      propertyPath: m_LocalScale.y
      value: 1.168277
      objectReference: {fileID: 0}
    - target: {fileID: 4815238100440128, guid: 44dab108a01da9a418f74bcbc6c3c65c, type: 2}
      propertyPath: m_LocalScale.z
      value: 1.168277
      objectReference: {fileID: 0}
    - target: {fileID: 4996102509236382, guid: 44dab108a01da9a418f74bcbc6c3c65c, type: 2}
      propertyPath: m_LocalPosition.x
      value: 0.81164
      objectReference: {fileID: 0}
    - target: {fileID: 4996102509236382, guid: 44dab108a01da9a418f74bcbc6c3c65c, type: 2}
      propertyPath: m_LocalPosition.y
      value: 4.6932
      objectReference: {fileID: 0}
    - target: {fileID: 4996102509236382, guid: 44dab108a01da9a418f74bcbc6c3c65c, type: 2}
      propertyPath: m_LocalPosition.z
      value: 0.81164
      objectReference: {fileID: 0}
    - target: {fileID: 4996102509236382, guid: 44dab108a01da9a418f74bcbc6c3c65c, type: 2}
      propertyPath: m_LocalScale.x
      value: 1.1682768
      objectReference: {fileID: 0}
    - target: {fileID: 4996102509236382, guid: 44dab108a01da9a418f74bcbc6c3c65c, type: 2}
      propertyPath: m_LocalScale.y
      value: 1.168277
      objectReference: {fileID: 0}
    - target: {fileID: 4996102509236382, guid: 44dab108a01da9a418f74bcbc6c3c65c, type: 2}
      propertyPath: m_LocalScale.z
      value: 1.168277
      objectReference: {fileID: 0}
    - target: {fileID: 4737879595965242, guid: 44dab108a01da9a418f74bcbc6c3c65c, type: 2}
      propertyPath: m_LocalPosition.x
      value: -0.89558
      objectReference: {fileID: 0}
    - target: {fileID: 4737879595965242, guid: 44dab108a01da9a418f74bcbc6c3c65c, type: 2}
      propertyPath: m_LocalPosition.y
      value: 4.1579
      objectReference: {fileID: 0}
    - target: {fileID: 4737879595965242, guid: 44dab108a01da9a418f74bcbc6c3c65c, type: 2}
      propertyPath: m_LocalPosition.z
      value: 0.89558
      objectReference: {fileID: 0}
    - target: {fileID: 4737879595965242, guid: 44dab108a01da9a418f74bcbc6c3c65c, type: 2}
      propertyPath: m_LocalScale.x
      value: 1.1682768
      objectReference: {fileID: 0}
    - target: {fileID: 4737879595965242, guid: 44dab108a01da9a418f74bcbc6c3c65c, type: 2}
      propertyPath: m_LocalScale.y
      value: 1.168277
      objectReference: {fileID: 0}
    - target: {fileID: 4737879595965242, guid: 44dab108a01da9a418f74bcbc6c3c65c, type: 2}
      propertyPath: m_LocalScale.z
      value: 1.168277
      objectReference: {fileID: 0}
    - target: {fileID: 4932839225729306, guid: 44dab108a01da9a418f74bcbc6c3c65c, type: 2}
      propertyPath: m_LocalPosition.y
      value: 3.1877
      objectReference: {fileID: 0}
    - target: {fileID: 4932839225729306, guid: 44dab108a01da9a418f74bcbc6c3c65c, type: 2}
      propertyPath: m_LocalPosition.z
      value: -0.81409
      objectReference: {fileID: 0}
    - target: {fileID: 4932839225729306, guid: 44dab108a01da9a418f74bcbc6c3c65c, type: 2}
      propertyPath: m_LocalScale.x
      value: 1.1682768
      objectReference: {fileID: 0}
    - target: {fileID: 4932839225729306, guid: 44dab108a01da9a418f74bcbc6c3c65c, type: 2}
      propertyPath: m_LocalScale.y
      value: 1.168277
      objectReference: {fileID: 0}
    - target: {fileID: 4932839225729306, guid: 44dab108a01da9a418f74bcbc6c3c65c, type: 2}
      propertyPath: m_LocalScale.z
      value: 1.168277
      objectReference: {fileID: 0}
    - target: {fileID: 4532108188586942, guid: 44dab108a01da9a418f74bcbc6c3c65c, type: 2}
      propertyPath: m_LocalPosition.y
      value: 3.6226
      objectReference: {fileID: 0}
    - target: {fileID: 4532108188586942, guid: 44dab108a01da9a418f74bcbc6c3c65c, type: 2}
      propertyPath: m_LocalPosition.z
      value: 1.1479
      objectReference: {fileID: 0}
    - target: {fileID: 4532108188586942, guid: 44dab108a01da9a418f74bcbc6c3c65c, type: 2}
      propertyPath: m_LocalScale.x
      value: 1.1682768
      objectReference: {fileID: 0}
    - target: {fileID: 4532108188586942, guid: 44dab108a01da9a418f74bcbc6c3c65c, type: 2}
      propertyPath: m_LocalScale.y
      value: 1.168277
      objectReference: {fileID: 0}
    - target: {fileID: 4532108188586942, guid: 44dab108a01da9a418f74bcbc6c3c65c, type: 2}
      propertyPath: m_LocalScale.z
      value: 1.168277
      objectReference: {fileID: 0}
    - target: {fileID: 4799652514776882, guid: 44dab108a01da9a418f74bcbc6c3c65c, type: 2}
      propertyPath: m_LocalPosition.y
      value: 3.1877
      objectReference: {fileID: 0}
    - target: {fileID: 4799652514776882, guid: 44dab108a01da9a418f74bcbc6c3c65c, type: 2}
      propertyPath: m_LocalPosition.z
      value: 0.81409
      objectReference: {fileID: 0}
    - target: {fileID: 4799652514776882, guid: 44dab108a01da9a418f74bcbc6c3c65c, type: 2}
      propertyPath: m_LocalScale.x
      value: 1.1682768
      objectReference: {fileID: 0}
    - target: {fileID: 4799652514776882, guid: 44dab108a01da9a418f74bcbc6c3c65c, type: 2}
      propertyPath: m_LocalScale.y
      value: 1.168277
      objectReference: {fileID: 0}
    - target: {fileID: 4799652514776882, guid: 44dab108a01da9a418f74bcbc6c3c65c, type: 2}
      propertyPath: m_LocalScale.z
      value: 1.168277
      objectReference: {fileID: 0}
    - target: {fileID: 4998199066454478, guid: 44dab108a01da9a418f74bcbc6c3c65c, type: 2}
      propertyPath: m_LocalPosition.x
      value: -0.57565
      objectReference: {fileID: 0}
    - target: {fileID: 4998199066454478, guid: 44dab108a01da9a418f74bcbc6c3c65c, type: 2}
      propertyPath: m_LocalPosition.y
      value: 5.1281
      objectReference: {fileID: 0}
    - target: {fileID: 4998199066454478, guid: 44dab108a01da9a418f74bcbc6c3c65c, type: 2}
      propertyPath: m_LocalPosition.z
      value: 0.57565
      objectReference: {fileID: 0}
    - target: {fileID: 4998199066454478, guid: 44dab108a01da9a418f74bcbc6c3c65c, type: 2}
      propertyPath: m_LocalScale.x
      value: 1.1682768
      objectReference: {fileID: 0}
    - target: {fileID: 4998199066454478, guid: 44dab108a01da9a418f74bcbc6c3c65c, type: 2}
      propertyPath: m_LocalScale.y
      value: 1.168277
      objectReference: {fileID: 0}
    - target: {fileID: 4998199066454478, guid: 44dab108a01da9a418f74bcbc6c3c65c, type: 2}
      propertyPath: m_LocalScale.z
      value: 1.168277
      objectReference: {fileID: 0}
    - target: {fileID: 4164515281271684, guid: 44dab108a01da9a418f74bcbc6c3c65c, type: 2}
      propertyPath: m_LocalPosition.y
      value: 5.1281
      objectReference: {fileID: 0}
    - target: {fileID: 4164515281271684, guid: 44dab108a01da9a418f74bcbc6c3c65c, type: 2}
      propertyPath: m_LocalPosition.z
      value: 0.81409
      objectReference: {fileID: 0}
    - target: {fileID: 4164515281271684, guid: 44dab108a01da9a418f74bcbc6c3c65c, type: 2}
      propertyPath: m_LocalScale.x
      value: 1.1682768
      objectReference: {fileID: 0}
    - target: {fileID: 4164515281271684, guid: 44dab108a01da9a418f74bcbc6c3c65c, type: 2}
      propertyPath: m_LocalScale.y
      value: 1.168277
      objectReference: {fileID: 0}
    - target: {fileID: 4164515281271684, guid: 44dab108a01da9a418f74bcbc6c3c65c, type: 2}
      propertyPath: m_LocalScale.z
      value: 1.168277
      objectReference: {fileID: 0}
    - target: {fileID: 4131891067560484, guid: 44dab108a01da9a418f74bcbc6c3c65c, type: 2}
      propertyPath: m_LocalPosition.x
      value: 1.2665
      objectReference: {fileID: 0}
    - target: {fileID: 4131891067560484, guid: 44dab108a01da9a418f74bcbc6c3c65c, type: 2}
      propertyPath: m_LocalPosition.y
      value: 4.1579
      objectReference: {fileID: 0}
    - target: {fileID: 4131891067560484, guid: 44dab108a01da9a418f74bcbc6c3c65c, type: 2}
      propertyPath: m_LocalScale.x
      value: 1.1682768
      objectReference: {fileID: 0}
    - target: {fileID: 4131891067560484, guid: 44dab108a01da9a418f74bcbc6c3c65c, type: 2}
      propertyPath: m_LocalScale.y
      value: 1.168277
      objectReference: {fileID: 0}
    - target: {fileID: 4131891067560484, guid: 44dab108a01da9a418f74bcbc6c3c65c, type: 2}
      propertyPath: m_LocalScale.z
      value: 1.168277
      objectReference: {fileID: 0}
    - target: {fileID: 4831482110925168, guid: 44dab108a01da9a418f74bcbc6c3c65c, type: 2}
      propertyPath: m_LocalPosition.x
      value: 0.57565
      objectReference: {fileID: 0}
    - target: {fileID: 4831482110925168, guid: 44dab108a01da9a418f74bcbc6c3c65c, type: 2}
      propertyPath: m_LocalPosition.y
      value: 5.1281
      objectReference: {fileID: 0}
    - target: {fileID: 4831482110925168, guid: 44dab108a01da9a418f74bcbc6c3c65c, type: 2}
      propertyPath: m_LocalPosition.z
      value: -0.57565
      objectReference: {fileID: 0}
    - target: {fileID: 4831482110925168, guid: 44dab108a01da9a418f74bcbc6c3c65c, type: 2}
      propertyPath: m_LocalScale.x
      value: 1.1682768
      objectReference: {fileID: 0}
    - target: {fileID: 4831482110925168, guid: 44dab108a01da9a418f74bcbc6c3c65c, type: 2}
      propertyPath: m_LocalScale.y
      value: 1.168277
      objectReference: {fileID: 0}
    - target: {fileID: 4831482110925168, guid: 44dab108a01da9a418f74bcbc6c3c65c, type: 2}
      propertyPath: m_LocalScale.z
      value: 1.168277
      objectReference: {fileID: 0}
    - target: {fileID: 4983093274815342, guid: 44dab108a01da9a418f74bcbc6c3c65c, type: 2}
      propertyPath: m_LocalPosition.x
      value: -0.81409
      objectReference: {fileID: 0}
    - target: {fileID: 4983093274815342, guid: 44dab108a01da9a418f74bcbc6c3c65c, type: 2}
      propertyPath: m_LocalPosition.y
      value: 3.1877
      objectReference: {fileID: 0}
    - target: {fileID: 4983093274815342, guid: 44dab108a01da9a418f74bcbc6c3c65c, type: 2}
      propertyPath: m_LocalScale.x
      value: 1.1682768
      objectReference: {fileID: 0}
    - target: {fileID: 4983093274815342, guid: 44dab108a01da9a418f74bcbc6c3c65c, type: 2}
      propertyPath: m_LocalScale.y
      value: 1.168277
      objectReference: {fileID: 0}
    - target: {fileID: 4983093274815342, guid: 44dab108a01da9a418f74bcbc6c3c65c, type: 2}
      propertyPath: m_LocalScale.z
      value: 1.168277
      objectReference: {fileID: 0}
    - target: {fileID: 4132822251515930, guid: 44dab108a01da9a418f74bcbc6c3c65c, type: 2}
      propertyPath: m_LocalPosition.x
      value: 0.57565
      objectReference: {fileID: 0}
    - target: {fileID: 4132822251515930, guid: 44dab108a01da9a418f74bcbc6c3c65c, type: 2}
      propertyPath: m_LocalPosition.y
      value: 5.1281
      objectReference: {fileID: 0}
    - target: {fileID: 4132822251515930, guid: 44dab108a01da9a418f74bcbc6c3c65c, type: 2}
      propertyPath: m_LocalPosition.z
      value: 0.57565
      objectReference: {fileID: 0}
    - target: {fileID: 4132822251515930, guid: 44dab108a01da9a418f74bcbc6c3c65c, type: 2}
      propertyPath: m_LocalScale.x
      value: 1.1682768
      objectReference: {fileID: 0}
    - target: {fileID: 4132822251515930, guid: 44dab108a01da9a418f74bcbc6c3c65c, type: 2}
      propertyPath: m_LocalScale.y
      value: 1.168277
      objectReference: {fileID: 0}
    - target: {fileID: 4132822251515930, guid: 44dab108a01da9a418f74bcbc6c3c65c, type: 2}
      propertyPath: m_LocalScale.z
      value: 1.168277
      objectReference: {fileID: 0}
    - target: {fileID: 4669116768296758, guid: 44dab108a01da9a418f74bcbc6c3c65c, type: 2}
      propertyPath: m_LocalPosition.x
      value: -0.81164
      objectReference: {fileID: 0}
    - target: {fileID: 4669116768296758, guid: 44dab108a01da9a418f74bcbc6c3c65c, type: 2}
      propertyPath: m_LocalPosition.y
      value: 3.6226
      objectReference: {fileID: 0}
    - target: {fileID: 4669116768296758, guid: 44dab108a01da9a418f74bcbc6c3c65c, type: 2}
      propertyPath: m_LocalPosition.z
      value: 0.81164
      objectReference: {fileID: 0}
    - target: {fileID: 4669116768296758, guid: 44dab108a01da9a418f74bcbc6c3c65c, type: 2}
      propertyPath: m_LocalScale.x
      value: 1.1682768
      objectReference: {fileID: 0}
    - target: {fileID: 4669116768296758, guid: 44dab108a01da9a418f74bcbc6c3c65c, type: 2}
      propertyPath: m_LocalScale.y
      value: 1.168277
      objectReference: {fileID: 0}
    - target: {fileID: 4669116768296758, guid: 44dab108a01da9a418f74bcbc6c3c65c, type: 2}
      propertyPath: m_LocalScale.z
      value: 1.168277
      objectReference: {fileID: 0}
    - target: {fileID: 4971999110280400, guid: 44dab108a01da9a418f74bcbc6c3c65c, type: 2}
      propertyPath: m_LocalPosition.y
      value: 5.3812
      objectReference: {fileID: 0}
    - target: {fileID: 4971999110280400, guid: 44dab108a01da9a418f74bcbc6c3c65c, type: 2}
      propertyPath: m_LocalPosition.z
      value: -0.32779
      objectReference: {fileID: 0}
    - target: {fileID: 4971999110280400, guid: 44dab108a01da9a418f74bcbc6c3c65c, type: 2}
      propertyPath: m_LocalScale.x
      value: 1.1682768
      objectReference: {fileID: 0}
    - target: {fileID: 4971999110280400, guid: 44dab108a01da9a418f74bcbc6c3c65c, type: 2}
      propertyPath: m_LocalScale.y
      value: 1.168277
      objectReference: {fileID: 0}
    - target: {fileID: 4971999110280400, guid: 44dab108a01da9a418f74bcbc6c3c65c, type: 2}
      propertyPath: m_LocalScale.z
      value: 1.168277
      objectReference: {fileID: 0}
    - target: {fileID: 4901317203974912, guid: 44dab108a01da9a418f74bcbc6c3c65c, type: 2}
      propertyPath: m_LocalPosition.x
      value: 0.57565
      objectReference: {fileID: 0}
    - target: {fileID: 4901317203974912, guid: 44dab108a01da9a418f74bcbc6c3c65c, type: 2}
      propertyPath: m_LocalPosition.y
      value: 3.1877
      objectReference: {fileID: 0}
    - target: {fileID: 4901317203974912, guid: 44dab108a01da9a418f74bcbc6c3c65c, type: 2}
      propertyPath: m_LocalPosition.z
      value: 0.57565
      objectReference: {fileID: 0}
    - target: {fileID: 4901317203974912, guid: 44dab108a01da9a418f74bcbc6c3c65c, type: 2}
      propertyPath: m_LocalScale.x
      value: 1.1682768
      objectReference: {fileID: 0}
    - target: {fileID: 4901317203974912, guid: 44dab108a01da9a418f74bcbc6c3c65c, type: 2}
      propertyPath: m_LocalScale.y
      value: 1.168277
      objectReference: {fileID: 0}
    - target: {fileID: 4901317203974912, guid: 44dab108a01da9a418f74bcbc6c3c65c, type: 2}
      propertyPath: m_LocalScale.z
      value: 1.168277
      objectReference: {fileID: 0}
    - target: {fileID: 4952741390472132, guid: 44dab108a01da9a418f74bcbc6c3c65c, type: 2}
      propertyPath: m_LocalPosition.y
      value: 5.1281
      objectReference: {fileID: 0}
    - target: {fileID: 4952741390472132, guid: 44dab108a01da9a418f74bcbc6c3c65c, type: 2}
      propertyPath: m_LocalPosition.z
      value: -0.81409
      objectReference: {fileID: 0}
    - target: {fileID: 4952741390472132, guid: 44dab108a01da9a418f74bcbc6c3c65c, type: 2}
      propertyPath: m_LocalScale.x
      value: 1.1682768
      objectReference: {fileID: 0}
    - target: {fileID: 4952741390472132, guid: 44dab108a01da9a418f74bcbc6c3c65c, type: 2}
      propertyPath: m_LocalScale.y
      value: 1.168277
      objectReference: {fileID: 0}
    - target: {fileID: 4952741390472132, guid: 44dab108a01da9a418f74bcbc6c3c65c, type: 2}
      propertyPath: m_LocalScale.z
      value: 1.168277
      objectReference: {fileID: 0}
    - target: {fileID: 4953983726446724, guid: 44dab108a01da9a418f74bcbc6c3c65c, type: 2}
      propertyPath: m_LocalPosition.x
      value: 0.89558
      objectReference: {fileID: 0}
    - target: {fileID: 4953983726446724, guid: 44dab108a01da9a418f74bcbc6c3c65c, type: 2}
      propertyPath: m_LocalPosition.y
      value: 4.1579
      objectReference: {fileID: 0}
    - target: {fileID: 4953983726446724, guid: 44dab108a01da9a418f74bcbc6c3c65c, type: 2}
      propertyPath: m_LocalPosition.z
      value: 0.89558
      objectReference: {fileID: 0}
    - target: {fileID: 4953983726446724, guid: 44dab108a01da9a418f74bcbc6c3c65c, type: 2}
      propertyPath: m_LocalScale.x
      value: 1.1682768
      objectReference: {fileID: 0}
    - target: {fileID: 4953983726446724, guid: 44dab108a01da9a418f74bcbc6c3c65c, type: 2}
      propertyPath: m_LocalScale.y
      value: 1.168277
      objectReference: {fileID: 0}
    - target: {fileID: 4953983726446724, guid: 44dab108a01da9a418f74bcbc6c3c65c, type: 2}
      propertyPath: m_LocalScale.z
      value: 1.168277
      objectReference: {fileID: 0}
    - target: {fileID: 4777934990039636, guid: 44dab108a01da9a418f74bcbc6c3c65c, type: 2}
      propertyPath: m_LocalPosition.x
      value: 0.57565
      objectReference: {fileID: 0}
    - target: {fileID: 4777934990039636, guid: 44dab108a01da9a418f74bcbc6c3c65c, type: 2}
      propertyPath: m_LocalPosition.y
      value: 3.1877
      objectReference: {fileID: 0}
    - target: {fileID: 4777934990039636, guid: 44dab108a01da9a418f74bcbc6c3c65c, type: 2}
      propertyPath: m_LocalPosition.z
      value: -0.57565
      objectReference: {fileID: 0}
    - target: {fileID: 4777934990039636, guid: 44dab108a01da9a418f74bcbc6c3c65c, type: 2}
      propertyPath: m_LocalScale.x
      value: 1.1682768
      objectReference: {fileID: 0}
    - target: {fileID: 4777934990039636, guid: 44dab108a01da9a418f74bcbc6c3c65c, type: 2}
      propertyPath: m_LocalScale.y
      value: 1.168277
      objectReference: {fileID: 0}
    - target: {fileID: 4777934990039636, guid: 44dab108a01da9a418f74bcbc6c3c65c, type: 2}
      propertyPath: m_LocalScale.z
      value: 1.168277
      objectReference: {fileID: 0}
    - target: {fileID: 4932112086496998, guid: 44dab108a01da9a418f74bcbc6c3c65c, type: 2}
      propertyPath: m_LocalPosition.x
      value: 0.81409
      objectReference: {fileID: 0}
    - target: {fileID: 4932112086496998, guid: 44dab108a01da9a418f74bcbc6c3c65c, type: 2}
      propertyPath: m_LocalPosition.y
      value: 3.1877
      objectReference: {fileID: 0}
    - target: {fileID: 4932112086496998, guid: 44dab108a01da9a418f74bcbc6c3c65c, type: 2}
      propertyPath: m_LocalScale.x
      value: 1.1682768
      objectReference: {fileID: 0}
    - target: {fileID: 4932112086496998, guid: 44dab108a01da9a418f74bcbc6c3c65c, type: 2}
      propertyPath: m_LocalScale.y
      value: 1.168277
      objectReference: {fileID: 0}
    - target: {fileID: 4932112086496998, guid: 44dab108a01da9a418f74bcbc6c3c65c, type: 2}
      propertyPath: m_LocalScale.z
      value: 1.168277
      objectReference: {fileID: 0}
    - target: {fileID: 4771623230279272, guid: 44dab108a01da9a418f74bcbc6c3c65c, type: 2}
      propertyPath: m_LocalPosition.x
      value: -0.81164
      objectReference: {fileID: 0}
    - target: {fileID: 4771623230279272, guid: 44dab108a01da9a418f74bcbc6c3c65c, type: 2}
      propertyPath: m_LocalPosition.y
      value: 4.6932
      objectReference: {fileID: 0}
    - target: {fileID: 4771623230279272, guid: 44dab108a01da9a418f74bcbc6c3c65c, type: 2}
      propertyPath: m_LocalPosition.z
      value: -0.81164
      objectReference: {fileID: 0}
    - target: {fileID: 4771623230279272, guid: 44dab108a01da9a418f74bcbc6c3c65c, type: 2}
      propertyPath: m_LocalScale.x
      value: 1.1682768
      objectReference: {fileID: 0}
    - target: {fileID: 4771623230279272, guid: 44dab108a01da9a418f74bcbc6c3c65c, type: 2}
      propertyPath: m_LocalScale.y
      value: 1.168277
      objectReference: {fileID: 0}
    - target: {fileID: 4771623230279272, guid: 44dab108a01da9a418f74bcbc6c3c65c, type: 2}
      propertyPath: m_LocalScale.z
      value: 1.168277
      objectReference: {fileID: 0}
    - target: {fileID: 4581502131081090, guid: 44dab108a01da9a418f74bcbc6c3c65c, type: 2}
      propertyPath: m_LocalPosition.x
      value: 1.1479
      objectReference: {fileID: 0}
    - target: {fileID: 4581502131081090, guid: 44dab108a01da9a418f74bcbc6c3c65c, type: 2}
      propertyPath: m_LocalPosition.y
      value: 4.6932
      objectReference: {fileID: 0}
    - target: {fileID: 4581502131081090, guid: 44dab108a01da9a418f74bcbc6c3c65c, type: 2}
      propertyPath: m_LocalScale.x
      value: 1.1682768
      objectReference: {fileID: 0}
    - target: {fileID: 4581502131081090, guid: 44dab108a01da9a418f74bcbc6c3c65c, type: 2}
      propertyPath: m_LocalScale.y
      value: 1.168277
      objectReference: {fileID: 0}
    - target: {fileID: 4581502131081090, guid: 44dab108a01da9a418f74bcbc6c3c65c, type: 2}
      propertyPath: m_LocalScale.z
      value: 1.168277
      objectReference: {fileID: 0}
    - target: {fileID: 4726464739819736, guid: 44dab108a01da9a418f74bcbc6c3c65c, type: 2}
      propertyPath: m_LocalPosition.x
      value: -0.57565
      objectReference: {fileID: 0}
    - target: {fileID: 4726464739819736, guid: 44dab108a01da9a418f74bcbc6c3c65c, type: 2}
      propertyPath: m_LocalPosition.y
      value: 3.1877
      objectReference: {fileID: 0}
    - target: {fileID: 4726464739819736, guid: 44dab108a01da9a418f74bcbc6c3c65c, type: 2}
      propertyPath: m_LocalPosition.z
      value: -0.57565
      objectReference: {fileID: 0}
    - target: {fileID: 4726464739819736, guid: 44dab108a01da9a418f74bcbc6c3c65c, type: 2}
      propertyPath: m_LocalScale.x
      value: 1.1682768
      objectReference: {fileID: 0}
    - target: {fileID: 4726464739819736, guid: 44dab108a01da9a418f74bcbc6c3c65c, type: 2}
      propertyPath: m_LocalScale.y
      value: 1.168277
      objectReference: {fileID: 0}
    - target: {fileID: 4726464739819736, guid: 44dab108a01da9a418f74bcbc6c3c65c, type: 2}
      propertyPath: m_LocalScale.z
      value: 1.168277
      objectReference: {fileID: 0}
    - target: {fileID: 4754027558958720, guid: 44dab108a01da9a418f74bcbc6c3c65c, type: 2}
      propertyPath: m_LocalPosition.y
      value: 5.3812
      objectReference: {fileID: 0}
    - target: {fileID: 4754027558958720, guid: 44dab108a01da9a418f74bcbc6c3c65c, type: 2}
      propertyPath: m_LocalPosition.z
      value: 0.32779
      objectReference: {fileID: 0}
    - target: {fileID: 4754027558958720, guid: 44dab108a01da9a418f74bcbc6c3c65c, type: 2}
      propertyPath: m_LocalScale.x
      value: 1.1682768
      objectReference: {fileID: 0}
    - target: {fileID: 4754027558958720, guid: 44dab108a01da9a418f74bcbc6c3c65c, type: 2}
      propertyPath: m_LocalScale.y
      value: 1.168277
      objectReference: {fileID: 0}
    - target: {fileID: 4754027558958720, guid: 44dab108a01da9a418f74bcbc6c3c65c, type: 2}
      propertyPath: m_LocalScale.z
      value: 1.168277
      objectReference: {fileID: 0}
    - target: {fileID: 4523464968705386, guid: 44dab108a01da9a418f74bcbc6c3c65c, type: 2}
      propertyPath: m_LocalPosition.x
      value: 0.32779
      objectReference: {fileID: 0}
    - target: {fileID: 4523464968705386, guid: 44dab108a01da9a418f74bcbc6c3c65c, type: 2}
      propertyPath: m_LocalPosition.y
      value: 5.3812
      objectReference: {fileID: 0}
    - target: {fileID: 4523464968705386, guid: 44dab108a01da9a418f74bcbc6c3c65c, type: 2}
      propertyPath: m_LocalScale.x
      value: 1.1682768
      objectReference: {fileID: 0}
    - target: {fileID: 4523464968705386, guid: 44dab108a01da9a418f74bcbc6c3c65c, type: 2}
      propertyPath: m_LocalScale.y
      value: 1.168277
      objectReference: {fileID: 0}
    - target: {fileID: 4523464968705386, guid: 44dab108a01da9a418f74bcbc6c3c65c, type: 2}
      propertyPath: m_LocalScale.z
      value: 1.168277
      objectReference: {fileID: 0}
    - target: {fileID: 4955127523059634, guid: 44dab108a01da9a418f74bcbc6c3c65c, type: 2}
      propertyPath: m_LocalPosition.x
      value: -0.57565
      objectReference: {fileID: 0}
    - target: {fileID: 4955127523059634, guid: 44dab108a01da9a418f74bcbc6c3c65c, type: 2}
      propertyPath: m_LocalPosition.y
      value: 5.1281
      objectReference: {fileID: 0}
    - target: {fileID: 4955127523059634, guid: 44dab108a01da9a418f74bcbc6c3c65c, type: 2}
      propertyPath: m_LocalPosition.z
      value: -0.57565
      objectReference: {fileID: 0}
    - target: {fileID: 4955127523059634, guid: 44dab108a01da9a418f74bcbc6c3c65c, type: 2}
      propertyPath: m_LocalScale.x
      value: 1.1682768
      objectReference: {fileID: 0}
    - target: {fileID: 4955127523059634, guid: 44dab108a01da9a418f74bcbc6c3c65c, type: 2}
      propertyPath: m_LocalScale.y
      value: 1.168277
      objectReference: {fileID: 0}
    - target: {fileID: 4955127523059634, guid: 44dab108a01da9a418f74bcbc6c3c65c, type: 2}
      propertyPath: m_LocalScale.z
      value: 1.168277
      objectReference: {fileID: 0}
    - target: {fileID: 4655837403231152, guid: 44dab108a01da9a418f74bcbc6c3c65c, type: 2}
      propertyPath: m_LocalPosition.x
      value: 0.81164
      objectReference: {fileID: 0}
    - target: {fileID: 4655837403231152, guid: 44dab108a01da9a418f74bcbc6c3c65c, type: 2}
      propertyPath: m_LocalPosition.y
      value: 3.6226
      objectReference: {fileID: 0}
    - target: {fileID: 4655837403231152, guid: 44dab108a01da9a418f74bcbc6c3c65c, type: 2}
      propertyPath: m_LocalPosition.z
      value: -0.81164
      objectReference: {fileID: 0}
    - target: {fileID: 4655837403231152, guid: 44dab108a01da9a418f74bcbc6c3c65c, type: 2}
      propertyPath: m_LocalScale.x
      value: 1.1682768
      objectReference: {fileID: 0}
    - target: {fileID: 4655837403231152, guid: 44dab108a01da9a418f74bcbc6c3c65c, type: 2}
      propertyPath: m_LocalScale.y
      value: 1.168277
      objectReference: {fileID: 0}
    - target: {fileID: 4655837403231152, guid: 44dab108a01da9a418f74bcbc6c3c65c, type: 2}
      propertyPath: m_LocalScale.z
      value: 1.168277
      objectReference: {fileID: 0}
    - target: {fileID: 4639186092473106, guid: 44dab108a01da9a418f74bcbc6c3c65c, type: 2}
      propertyPath: m_LocalPosition.x
      value: -0.81409
      objectReference: {fileID: 0}
    - target: {fileID: 4639186092473106, guid: 44dab108a01da9a418f74bcbc6c3c65c, type: 2}
      propertyPath: m_LocalPosition.y
      value: 5.1281
      objectReference: {fileID: 0}
    - target: {fileID: 4639186092473106, guid: 44dab108a01da9a418f74bcbc6c3c65c, type: 2}
      propertyPath: m_LocalScale.x
      value: 1.1682768
      objectReference: {fileID: 0}
    - target: {fileID: 4639186092473106, guid: 44dab108a01da9a418f74bcbc6c3c65c, type: 2}
      propertyPath: m_LocalScale.y
      value: 1.168277
      objectReference: {fileID: 0}
    - target: {fileID: 4639186092473106, guid: 44dab108a01da9a418f74bcbc6c3c65c, type: 2}
      propertyPath: m_LocalScale.z
      value: 1.168277
      objectReference: {fileID: 0}
    - target: {fileID: 4576126777842014, guid: 44dab108a01da9a418f74bcbc6c3c65c, type: 2}
      propertyPath: m_LocalPosition.x
      value: 0.81164
      objectReference: {fileID: 0}
    - target: {fileID: 4576126777842014, guid: 44dab108a01da9a418f74bcbc6c3c65c, type: 2}
      propertyPath: m_LocalPosition.y
      value: 4.6932
      objectReference: {fileID: 0}
    - target: {fileID: 4576126777842014, guid: 44dab108a01da9a418f74bcbc6c3c65c, type: 2}
      propertyPath: m_LocalPosition.z
      value: -0.81164
      objectReference: {fileID: 0}
    - target: {fileID: 4576126777842014, guid: 44dab108a01da9a418f74bcbc6c3c65c, type: 2}
      propertyPath: m_LocalScale.x
      value: 1.1682768
      objectReference: {fileID: 0}
    - target: {fileID: 4576126777842014, guid: 44dab108a01da9a418f74bcbc6c3c65c, type: 2}
      propertyPath: m_LocalScale.y
      value: 1.168277
      objectReference: {fileID: 0}
    - target: {fileID: 4576126777842014, guid: 44dab108a01da9a418f74bcbc6c3c65c, type: 2}
      propertyPath: m_LocalScale.z
      value: 1.168277
      objectReference: {fileID: 0}
    - target: {fileID: 4495994369785344, guid: 44dab108a01da9a418f74bcbc6c3c65c, type: 2}
      propertyPath: m_LocalPosition.x
      value: -0.32779
      objectReference: {fileID: 0}
    - target: {fileID: 4495994369785344, guid: 44dab108a01da9a418f74bcbc6c3c65c, type: 2}
      propertyPath: m_LocalPosition.y
      value: 5.3812
      objectReference: {fileID: 0}
    - target: {fileID: 4495994369785344, guid: 44dab108a01da9a418f74bcbc6c3c65c, type: 2}
      propertyPath: m_LocalScale.x
      value: 1.1682768
      objectReference: {fileID: 0}
    - target: {fileID: 4495994369785344, guid: 44dab108a01da9a418f74bcbc6c3c65c, type: 2}
      propertyPath: m_LocalScale.y
      value: 1.168277
      objectReference: {fileID: 0}
    - target: {fileID: 4495994369785344, guid: 44dab108a01da9a418f74bcbc6c3c65c, type: 2}
      propertyPath: m_LocalScale.z
      value: 1.168277
      objectReference: {fileID: 0}
    - target: {fileID: 4307380230647598, guid: 44dab108a01da9a418f74bcbc6c3c65c, type: 2}
      propertyPath: m_LocalPosition.x
      value: -1.1479
      objectReference: {fileID: 0}
    - target: {fileID: 4307380230647598, guid: 44dab108a01da9a418f74bcbc6c3c65c, type: 2}
      propertyPath: m_LocalPosition.y
      value: 4.6932
      objectReference: {fileID: 0}
    - target: {fileID: 4307380230647598, guid: 44dab108a01da9a418f74bcbc6c3c65c, type: 2}
      propertyPath: m_LocalScale.x
      value: 1.1682768
      objectReference: {fileID: 0}
    - target: {fileID: 4307380230647598, guid: 44dab108a01da9a418f74bcbc6c3c65c, type: 2}
      propertyPath: m_LocalScale.y
      value: 1.168277
      objectReference: {fileID: 0}
    - target: {fileID: 4307380230647598, guid: 44dab108a01da9a418f74bcbc6c3c65c, type: 2}
      propertyPath: m_LocalScale.z
      value: 1.168277
      objectReference: {fileID: 0}
    - target: {fileID: 4221935382330022, guid: 44dab108a01da9a418f74bcbc6c3c65c, type: 2}
      propertyPath: m_LocalPosition.x
      value: 0.81164
      objectReference: {fileID: 0}
    - target: {fileID: 4221935382330022, guid: 44dab108a01da9a418f74bcbc6c3c65c, type: 2}
      propertyPath: m_LocalPosition.y
      value: 3.6226
      objectReference: {fileID: 0}
    - target: {fileID: 4221935382330022, guid: 44dab108a01da9a418f74bcbc6c3c65c, type: 2}
      propertyPath: m_LocalPosition.z
      value: 0.81164
      objectReference: {fileID: 0}
    - target: {fileID: 4221935382330022, guid: 44dab108a01da9a418f74bcbc6c3c65c, type: 2}
      propertyPath: m_LocalScale.x
      value: 1.1682768
      objectReference: {fileID: 0}
    - target: {fileID: 4221935382330022, guid: 44dab108a01da9a418f74bcbc6c3c65c, type: 2}
      propertyPath: m_LocalScale.y
      value: 1.168277
      objectReference: {fileID: 0}
    - target: {fileID: 4221935382330022, guid: 44dab108a01da9a418f74bcbc6c3c65c, type: 2}
      propertyPath: m_LocalScale.z
      value: 1.168277
      objectReference: {fileID: 0}
    - target: {fileID: 4933845686209876, guid: 44dab108a01da9a418f74bcbc6c3c65c, type: 2}
      propertyPath: m_LocalPosition.y
      value: 4.6932
      objectReference: {fileID: 0}
    - target: {fileID: 4933845686209876, guid: 44dab108a01da9a418f74bcbc6c3c65c, type: 2}
      propertyPath: m_LocalPosition.z
      value: -1.1479
      objectReference: {fileID: 0}
    - target: {fileID: 4933845686209876, guid: 44dab108a01da9a418f74bcbc6c3c65c, type: 2}
      propertyPath: m_LocalScale.x
      value: 1.1682768
      objectReference: {fileID: 0}
    - target: {fileID: 4933845686209876, guid: 44dab108a01da9a418f74bcbc6c3c65c, type: 2}
      propertyPath: m_LocalScale.y
      value: 1.168277
      objectReference: {fileID: 0}
    - target: {fileID: 4933845686209876, guid: 44dab108a01da9a418f74bcbc6c3c65c, type: 2}
      propertyPath: m_LocalScale.z
      value: 1.168277
      objectReference: {fileID: 0}
    - target: {fileID: 4142137642377748, guid: 44dab108a01da9a418f74bcbc6c3c65c, type: 2}
      propertyPath: m_LocalPosition.y
      value: 3.6226
      objectReference: {fileID: 0}
    - target: {fileID: 4142137642377748, guid: 44dab108a01da9a418f74bcbc6c3c65c, type: 2}
      propertyPath: m_LocalPosition.z
      value: -1.1479
      objectReference: {fileID: 0}
    - target: {fileID: 4142137642377748, guid: 44dab108a01da9a418f74bcbc6c3c65c, type: 2}
      propertyPath: m_LocalScale.x
      value: 1.1682768
      objectReference: {fileID: 0}
    - target: {fileID: 4142137642377748, guid: 44dab108a01da9a418f74bcbc6c3c65c, type: 2}
      propertyPath: m_LocalScale.y
      value: 1.168277
      objectReference: {fileID: 0}
    - target: {fileID: 4142137642377748, guid: 44dab108a01da9a418f74bcbc6c3c65c, type: 2}
      propertyPath: m_LocalScale.z
      value: 1.168277
      objectReference: {fileID: 0}
    - target: {fileID: 4915419460254040, guid: 44dab108a01da9a418f74bcbc6c3c65c, type: 2}
      propertyPath: m_LocalPosition.x
      value: 0.81409
      objectReference: {fileID: 0}
    - target: {fileID: 4915419460254040, guid: 44dab108a01da9a418f74bcbc6c3c65c, type: 2}
      propertyPath: m_LocalPosition.y
      value: 5.1281
      objectReference: {fileID: 0}
    - target: {fileID: 4915419460254040, guid: 44dab108a01da9a418f74bcbc6c3c65c, type: 2}
      propertyPath: m_LocalScale.x
      value: 1.1682768
      objectReference: {fileID: 0}
    - target: {fileID: 4915419460254040, guid: 44dab108a01da9a418f74bcbc6c3c65c, type: 2}
      propertyPath: m_LocalScale.y
      value: 1.168277
      objectReference: {fileID: 0}
    - target: {fileID: 4915419460254040, guid: 44dab108a01da9a418f74bcbc6c3c65c, type: 2}
      propertyPath: m_LocalScale.z
      value: 1.168277
      objectReference: {fileID: 0}
    - target: {fileID: 4858205281181636, guid: 44dab108a01da9a418f74bcbc6c3c65c, type: 2}
      propertyPath: m_LocalPosition.x
      value: -0.89558
      objectReference: {fileID: 0}
    - target: {fileID: 4858205281181636, guid: 44dab108a01da9a418f74bcbc6c3c65c, type: 2}
      propertyPath: m_LocalPosition.y
      value: 4.1579
      objectReference: {fileID: 0}
    - target: {fileID: 4858205281181636, guid: 44dab108a01da9a418f74bcbc6c3c65c, type: 2}
      propertyPath: m_LocalPosition.z
      value: -0.89558
      objectReference: {fileID: 0}
    - target: {fileID: 4858205281181636, guid: 44dab108a01da9a418f74bcbc6c3c65c, type: 2}
      propertyPath: m_LocalScale.x
      value: 1.1682768
      objectReference: {fileID: 0}
    - target: {fileID: 4858205281181636, guid: 44dab108a01da9a418f74bcbc6c3c65c, type: 2}
      propertyPath: m_LocalScale.y
      value: 1.168277
      objectReference: {fileID: 0}
    - target: {fileID: 4858205281181636, guid: 44dab108a01da9a418f74bcbc6c3c65c, type: 2}
      propertyPath: m_LocalScale.z
      value: 1.168277
      objectReference: {fileID: 0}
    - target: {fileID: 4836804721308606, guid: 44dab108a01da9a418f74bcbc6c3c65c, type: 2}
      propertyPath: m_LocalPosition.y
      value: 4.1579
      objectReference: {fileID: 0}
    - target: {fileID: 4836804721308606, guid: 44dab108a01da9a418f74bcbc6c3c65c, type: 2}
      propertyPath: m_LocalPosition.z
      value: 1.2665
      objectReference: {fileID: 0}
    - target: {fileID: 4836804721308606, guid: 44dab108a01da9a418f74bcbc6c3c65c, type: 2}
      propertyPath: m_LocalScale.x
      value: 1.1682768
      objectReference: {fileID: 0}
    - target: {fileID: 4836804721308606, guid: 44dab108a01da9a418f74bcbc6c3c65c, type: 2}
      propertyPath: m_LocalScale.y
      value: 1.168277
      objectReference: {fileID: 0}
    - target: {fileID: 4836804721308606, guid: 44dab108a01da9a418f74bcbc6c3c65c, type: 2}
      propertyPath: m_LocalScale.z
      value: 1.168277
      objectReference: {fileID: 0}
    - target: {fileID: 4049490680650326, guid: 44dab108a01da9a418f74bcbc6c3c65c, type: 2}
      propertyPath: m_LocalPosition.x
      value: -0.57565
      objectReference: {fileID: 0}
    - target: {fileID: 4049490680650326, guid: 44dab108a01da9a418f74bcbc6c3c65c, type: 2}
      propertyPath: m_LocalPosition.y
      value: 3.1877
      objectReference: {fileID: 0}
    - target: {fileID: 4049490680650326, guid: 44dab108a01da9a418f74bcbc6c3c65c, type: 2}
      propertyPath: m_LocalPosition.z
      value: 0.57565
      objectReference: {fileID: 0}
    - target: {fileID: 4049490680650326, guid: 44dab108a01da9a418f74bcbc6c3c65c, type: 2}
      propertyPath: m_LocalScale.x
      value: 1.1682768
      objectReference: {fileID: 0}
    - target: {fileID: 4049490680650326, guid: 44dab108a01da9a418f74bcbc6c3c65c, type: 2}
      propertyPath: m_LocalScale.y
      value: 1.168277
      objectReference: {fileID: 0}
    - target: {fileID: 4049490680650326, guid: 44dab108a01da9a418f74bcbc6c3c65c, type: 2}
      propertyPath: m_LocalScale.z
      value: 1.168277
      objectReference: {fileID: 0}
    - target: {fileID: 4642103039703074, guid: 44dab108a01da9a418f74bcbc6c3c65c, type: 2}
      propertyPath: m_LocalPosition.y
      value: 4.6932
      objectReference: {fileID: 0}
    - target: {fileID: 4642103039703074, guid: 44dab108a01da9a418f74bcbc6c3c65c, type: 2}
      propertyPath: m_LocalPosition.z
      value: 1.1479
      objectReference: {fileID: 0}
    - target: {fileID: 4642103039703074, guid: 44dab108a01da9a418f74bcbc6c3c65c, type: 2}
      propertyPath: m_LocalScale.x
      value: 1.1682768
      objectReference: {fileID: 0}
    - target: {fileID: 4642103039703074, guid: 44dab108a01da9a418f74bcbc6c3c65c, type: 2}
      propertyPath: m_LocalScale.y
      value: 1.168277
      objectReference: {fileID: 0}
    - target: {fileID: 4642103039703074, guid: 44dab108a01da9a418f74bcbc6c3c65c, type: 2}
      propertyPath: m_LocalScale.z
      value: 1.168277
      objectReference: {fileID: 0}
    - target: {fileID: 4145462048804812, guid: 44dab108a01da9a418f74bcbc6c3c65c, type: 2}
      propertyPath: m_LocalPosition.y
      value: 4.1579
      objectReference: {fileID: 0}
    - target: {fileID: 4145462048804812, guid: 44dab108a01da9a418f74bcbc6c3c65c, type: 2}
      propertyPath: m_LocalPosition.z
      value: -1.2665
      objectReference: {fileID: 0}
    - target: {fileID: 4145462048804812, guid: 44dab108a01da9a418f74bcbc6c3c65c, type: 2}
      propertyPath: m_LocalScale.x
      value: 1.1682768
      objectReference: {fileID: 0}
    - target: {fileID: 4145462048804812, guid: 44dab108a01da9a418f74bcbc6c3c65c, type: 2}
      propertyPath: m_LocalScale.y
      value: 1.168277
      objectReference: {fileID: 0}
    - target: {fileID: 4145462048804812, guid: 44dab108a01da9a418f74bcbc6c3c65c, type: 2}
      propertyPath: m_LocalScale.z
      value: 1.168277
      objectReference: {fileID: 0}
    m_RemovedComponents: []
  m_ParentPrefab: {fileID: 100100000, guid: 44dab108a01da9a418f74bcbc6c3c65c, type: 2}
  m_IsPrefabParent: 0
